Typical Measured Spectrum of Semrock FF01-810/10 Optical Filter	
For wavelengths between 320 and 1120 nm, values near or below 3e-7 (Optical Density 6.5) are measurement noise limited.
For wavelengths < 320 nm and > 1120 nm, values near or below 3e-6 (Optical Density 5.5) are measurement noise limited. 
Data format:  Wavelength (nm) <tab> Transmission (0 to 1)
270.0	2.7264e-06
270.2	2.9807e-06
270.4	3.2586e-06
270.6	3.5625e-06
270.8	3.8947e-06
271.0	4.258e-06
271.2	4.655e-06
271.4	5.0892e-06
271.6	5.5638e-06
271.8	6.0826e-06
272.0	6.6499e-06
272.2	7.27e-06
272.4	7.948e-06
272.6	8.6892e-06
272.8	9.4995e-06
273.0	1.0385e-05
273.2	1.1354e-05
273.4	1.2413e-05
273.6	1.357e-05
273.8	1.4836e-05
274.0	1.6219e-05
274.2	3.3978e-05
274.4	7.7137e-05
274.6	1.7512e-04
274.8	3.9755e-04
275.0	9.0253e-04
275.2	5.1863e-04
275.4	2.9802e-04
275.6	1.7126e-04
275.8	9.841e-05
276.0	5.655e-05
276.2	3.2496e-05
276.4	1.8673e-05
276.6	1.073e-05
276.8	6.1661e-06
277.0	3.5433e-06
277.2	2.0361e-06
277.4	1.17e-06
277.6	6.7234e-07
277.8	3.8635e-07
278.0	3.4631e-07
278.2	3.4111e-07
278.4	3.36e-07
278.6	3.3096e-07
278.8	3.2599e-07
279.0	3.2111e-07
279.2	3.1629e-07
279.4	3.1155e-07
279.6	3.0687e-07
279.8	3.0227e-07
280.0	2.9774e-07
280.2	2.9327e-07
280.4	2.8888e-07
280.6	2.8454e-07
280.8	2.8028e-07
281.0	2.7607e-07
281.2	2.7193e-07
281.4	2.6785e-07
281.6	2.6384e-07
281.8	2.5988e-07
282.0	2.5598e-07
282.2	2.5214e-07
282.4	2.4836e-07
282.6	2.4437e-07
282.8	2.4019e-07
283.0	2.3607e-07
283.2	2.3203e-07
283.4	2.2806e-07
283.6	2.2415e-07
283.8	2.2031e-07
284.0	2.1654e-07
284.2	2.1283e-07
284.4	2.0918e-07
284.6	2.056e-07
284.8	2.0208e-07
285.0	1.9862e-07
285.2	1.9533e-07
285.4	1.9209e-07
285.6	1.8891e-07
285.8	1.8578e-07
286.0	1.827e-07
286.2	1.7967e-07
286.4	1.767e-07
286.6	1.7377e-07
286.8	1.7089e-07
287.0	1.6806e-07
287.2	1.6527e-07
287.4	1.6253e-07
287.6	1.5984e-07
287.8	1.5719e-07
288.0	1.5478e-07
288.2	1.5244e-07
288.4	1.5013e-07
288.6	1.4785e-07
288.8	1.4561e-07
289.0	1.434e-07
289.2	1.4123e-07
289.4	1.3909e-07
289.6	1.3698e-07
289.8	1.3491e-07
290.0	1.3286e-07
290.2	1.3085e-07
290.4	1.2887e-07
290.6	1.2691e-07
290.8	1.2499e-07
291.0	1.231e-07
291.2	1.2123e-07
291.4	1.1939e-07
291.6	1.1758e-07
291.8	1.158e-07
292.0	1.1405e-07
292.2	1.1232e-07
292.4	1.1062e-07
292.6	1.0852e-07
292.8	1.0614e-07
293.0	1.038e-07
293.2	1.0152e-07
293.4	9.9282e-08
293.6	9.7097e-08
293.8	9.4961e-08
294.0	9.2871e-08
294.2	9.0827e-08
294.4	8.8829e-08
294.6	8.6874e-08
294.8	8.4962e-08
295.0	8.3093e-08
295.2	9.7832e-08
295.4	1.1519e-07
295.6	1.3562e-07
295.8	1.5334e-07
296.0	1.7159e-07
296.2	1.92e-07
296.4	2.1484e-07
296.6	2.404e-07
296.8	2.6899e-07
297.0	3.0099e-07
297.2	3.368e-07
297.4	3.7687e-07
297.6	4.217e-07
297.8	4.7187e-07
298.0	5.28e-07
298.2	5.9081e-07
298.4	6.611e-07
298.6	7.3974e-07
298.8	8.2775e-07
299.0	9.2622e-07
299.2	1.0364e-06
299.4	1.1597e-06
299.6	1.2977e-06
299.8	1.452e-06
300.0	1.6248e-06
300.2	1.8181e-06
300.4	1.8385e-06
300.6	1.6661e-06
300.8	1.5099e-06
301.0	1.3683e-06
301.2	1.2401e-06
301.4	1.1238e-06
301.6	1.0184e-06
301.8	9.2293e-07
302.0	8.364e-07
302.2	7.5798e-07
302.4	6.8691e-07
302.6	6.2251e-07
302.8	5.6414e-07
303.0	5.1125e-07
303.2	4.6331e-07
303.4	4.1987e-07
303.6	3.8051e-07
303.8	3.4483e-07
304.0	3.125e-07
304.2	2.832e-07
304.4	2.5665e-07
304.6	2.3258e-07
304.8	2.1078e-07
305.0	1.909e-07
305.2	1.7175e-07
305.4	1.5452e-07
305.6	1.3902e-07
305.8	1.2507e-07
306.0	1.1253e-07
306.2	1.0124e-07
306.4	9.1085e-08
306.6	8.1948e-08
306.8	7.3728e-08
307.0	6.7887e-08
307.2	6.77e-08
307.4	6.7514e-08
307.6	6.7329e-08
307.8	6.7144e-08
308.0	6.6959e-08
308.2	6.6775e-08
308.4	6.6592e-08
308.6	6.6409e-08
308.8	6.6226e-08
309.0	6.6044e-08
309.2	6.5863e-08
309.4	6.5682e-08
309.6	6.5501e-08
309.8	6.5321e-08
310.0	6.5142e-08
310.2	6.4963e-08
310.4	6.4784e-08
310.6	6.4606e-08
310.8	6.4429e-08
311.0	6.4252e-08
311.2	6.4075e-08
311.4	6.3899e-08
311.6	6.3724e-08
311.8	6.336e-08
312.0	6.2975e-08
312.2	6.2592e-08
312.4	6.2212e-08
312.6	6.1834e-08
312.8	6.1458e-08
313.0	6.1085e-08
313.2	6.0713e-08
313.4	6.0344e-08
313.6	5.9978e-08
313.8	5.9613e-08
314.0	5.9251e-08
314.2	5.8891e-08
314.4	5.8533e-08
314.6	5.8177e-08
314.8	5.7824e-08
315.0	5.7473e-08
315.2	5.7123e-08
315.4	5.6776e-08
315.6	5.6431e-08
315.8	5.6088e-08
316.0	5.5747e-08
316.2	5.5409e-08
316.4	5.5146e-08
316.6	5.494e-08
316.8	5.4734e-08
317.0	5.453e-08
317.2	5.4326e-08
317.4	5.4122e-08
317.6	5.392e-08
317.8	5.3718e-08
318.0	5.3517e-08
318.2	5.3317e-08
318.4	5.3117e-08
318.6	5.2919e-08
318.8	5.2721e-08
319.0	5.2523e-08
319.2	5.2327e-08
319.4	5.2131e-08
319.6	5.1936e-08
319.8	5.1742e-08
320.0	5.1548e-08
320.2	5.1355e-08
320.4	5.1163e-08
320.6	5.0972e-08
320.8	5.0781e-08
321.0	5.0551e-08
321.2	5.0212e-08
321.4	4.9876e-08
321.6	4.9542e-08
321.8	4.9209e-08
322.0	4.888e-08
322.2	4.8552e-08
322.4	4.8227e-08
322.6	4.7903e-08
322.8	4.7582e-08
323.0	4.7263e-08
323.2	4.6946e-08
323.4	4.6632e-08
323.6	4.6319e-08
323.8	4.6009e-08
324.0	4.57e-08
324.2	4.5394e-08
324.4	4.509e-08
324.6	4.4788e-08
324.8	4.4487e-08
325.0	4.4189e-08
325.2	4.3893e-08
325.4	4.3599e-08
325.6	4.3307e-08
325.8	4.2807e-08
326.0	4.2309e-08
326.2	4.1816e-08
326.4	4.1329e-08
326.6	4.0848e-08
326.8	4.0372e-08
327.0	3.9902e-08
327.2	3.9437e-08
327.4	3.8977e-08
327.6	3.8523e-08
327.8	3.8075e-08
328.0	3.7631e-08
328.2	3.7193e-08
328.4	3.676e-08
328.6	3.6332e-08
328.8	3.5908e-08
329.0	3.549e-08
329.2	3.5077e-08
329.4	3.4668e-08
329.6	3.4264e-08
329.8	3.3865e-08
330.0	3.3471e-08
330.2	3.3081e-08
330.4	3.4972e-08
330.6	3.8106e-08
330.8	4.1521e-08
331.0	4.5242e-08
331.2	4.9297e-08
331.4	5.3715e-08
331.6	5.8529e-08
331.8	6.3775e-08
332.0	6.949e-08
332.2	7.5718e-08
332.4	8.2504e-08
332.6	8.9898e-08
332.8	9.7954e-08
333.0	1.0673e-07
333.2	1.163e-07
333.4	1.2672e-07
333.6	1.3808e-07
333.8	1.5045e-07
334.0	1.6394e-07
334.2	1.7863e-07
334.4	1.9464e-07
334.6	2.1208e-07
334.8	2.3109e-07
335.0	2.517e-07
335.2	2.7373e-07
335.4	2.9769e-07
335.6	3.2376e-07
335.8	3.521e-07
336.0	3.8292e-07
336.2	4.1644e-07
336.4	4.529e-07
336.6	4.9255e-07
336.8	5.3567e-07
337.0	5.4577e-07
337.2	4.721e-07
337.4	4.0838e-07
337.6	3.5326e-07
337.8	3.0558e-07
338.0	2.6433e-07
338.2	2.2865e-07
338.4	1.9779e-07
338.6	1.7109e-07
338.8	1.48e-07
339.0	1.2802e-07
339.2	1.1074e-07
339.4	9.5795e-08
339.6	8.2865e-08
339.8	7.168e-08
340.0	6.2005e-08
340.2	5.3635e-08
340.4	4.6396e-08
340.6	4.0134e-08
340.8	3.4716e-08
341.0	3.0031e-08
341.2	2.5977e-08
341.4	2.2471e-08
341.6	1.9438e-08
341.8	1.9304e-08
342.0	1.9211e-08
342.2	1.9119e-08
342.4	1.9027e-08
342.6	1.8936e-08
342.8	1.8845e-08
343.0	1.8755e-08
343.2	1.8665e-08
343.4	1.8575e-08
343.6	1.8486e-08
343.8	1.8398e-08
344.0	1.8309e-08
344.2	1.8222e-08
344.4	1.8134e-08
344.6	1.8047e-08
344.8	1.7961e-08
345.0	1.7875e-08
345.2	1.7789e-08
345.4	1.7703e-08
345.6	1.7619e-08
345.8	1.7534e-08
346.0	1.745e-08
346.2	1.7366e-08
346.4	1.7352e-08
346.6	1.7368e-08
346.8	1.7383e-08
347.0	1.7398e-08
347.2	1.7414e-08
347.4	1.7429e-08
347.6	1.7445e-08
347.8	1.746e-08
348.0	1.7475e-08
348.2	1.7491e-08
348.4	1.7506e-08
348.6	1.7522e-08
348.8	1.7537e-08
349.0	1.7553e-08
349.2	1.7568e-08
349.4	1.7584e-08
349.6	1.7599e-08
349.8	1.7615e-08
350.0	1.763e-08
350.2	1.7646e-08
350.4	1.7662e-08
350.6	1.7677e-08
350.8	1.7693e-08
351.0	1.7699e-08
351.2	1.7692e-08
351.4	1.7685e-08
351.6	1.7679e-08
351.8	1.7672e-08
352.0	1.7666e-08
352.2	1.7659e-08
352.4	1.7652e-08
352.6	1.7646e-08
352.8	1.7639e-08
353.0	1.7632e-08
353.2	1.7626e-08
353.4	1.7619e-08
353.6	1.7612e-08
353.8	1.7606e-08
354.0	1.7599e-08
354.2	1.7593e-08
354.4	1.7586e-08
354.6	1.7579e-08
354.8	1.7573e-08
355.0	1.7566e-08
355.2	1.756e-08
355.4	1.7553e-08
355.6	1.756e-08
355.8	1.7637e-08
356.0	1.7714e-08
356.2	1.7792e-08
356.4	1.787e-08
356.6	1.7948e-08
356.8	1.8027e-08
357.0	1.8105e-08
357.2	1.8185e-08
357.4	1.8264e-08
357.6	1.8344e-08
357.8	1.8425e-08
358.0	1.8505e-08
358.2	1.8586e-08
358.4	1.8667e-08
358.6	1.8749e-08
358.8	1.8831e-08
359.0	1.8914e-08
359.2	1.8996e-08
359.4	1.9079e-08
359.6	1.9163e-08
359.8	1.9247e-08
360.0	1.9331e-08
360.2	1.9416e-08
360.4	1.9904e-08
360.6	2.0438e-08
360.8	2.0987e-08
361.0	2.155e-08
361.2	2.2128e-08
361.4	2.2722e-08
361.6	2.3332e-08
361.8	2.3958e-08
362.0	2.4601e-08
362.2	2.5262e-08
362.4	2.594e-08
362.6	2.6636e-08
362.8	2.7351e-08
363.0	2.8085e-08
363.2	2.8839e-08
363.4	2.9613e-08
363.6	3.0408e-08
363.8	3.1224e-08
364.0	3.2062e-08
364.2	3.2922e-08
364.4	3.3806e-08
364.6	3.4713e-08
364.8	3.5645e-08
365.0	3.7035e-08
365.2	3.935e-08
365.4	4.1809e-08
365.6	4.4421e-08
365.8	4.7197e-08
366.0	5.0146e-08
366.2	5.328e-08
366.4	5.6609e-08
366.6	6.0147e-08
366.8	6.3905e-08
367.0	6.7899e-08
367.2	7.2142e-08
367.4	7.665e-08
367.6	8.144e-08
367.8	8.6529e-08
368.0	9.1936e-08
368.2	9.7681e-08
368.4	9.7874e-08
368.6	9.0439e-08
368.8	8.3569e-08
369.0	7.7221e-08
369.2	7.1355e-08
369.4	6.5934e-08
369.6	6.0926e-08
369.8	5.6298e-08
370.0	5.2021e-08
370.2	4.8069e-08
370.4	4.4418e-08
370.6	4.1044e-08
370.8	3.7926e-08
371.0	3.5045e-08
371.2	3.2383e-08
371.4	2.9923e-08
371.6	2.765e-08
371.8	2.555e-08
372.0	2.3609e-08
372.2	2.1815e-08
372.4	2.0158e-08
372.6	1.8627e-08
372.8	1.7212e-08
373.0	1.6263e-08
373.2	1.773e-08
373.4	1.9329e-08
373.6	2.1072e-08
373.8	2.2972e-08
374.0	2.5044e-08
374.2	2.7303e-08
374.4	2.9765e-08
374.6	3.2449e-08
374.8	3.5375e-08
375.0	3.8566e-08
375.2	4.2044e-08
375.4	4.5835e-08
375.6	4.9969e-08
375.8	5.4475e-08
376.0	5.9387e-08
376.2	6.4743e-08
376.4	7.0582e-08
376.6	7.6947e-08
376.8	8.3886e-08
377.0	9.1451e-08
377.2	9.9698e-08
377.4	1.0869e-07
377.6	1.1849e-07
377.8	1.1064e-07
378.0	1.0074e-07
378.2	9.1721e-08
378.4	8.3512e-08
378.6	7.6037e-08
378.8	6.9231e-08
379.0	6.3035e-08
379.2	5.7393e-08
379.4	5.2256e-08
379.6	4.7579e-08
379.8	4.332e-08
380.0	3.9443e-08
380.2	3.5913e-08
380.4	3.2698e-08
380.6	2.9772e-08
380.8	2.7107e-08
381.0	2.4681e-08
381.2	2.2472e-08
381.4	2.046e-08
381.6	1.8629e-08
381.8	1.6962e-08
382.0	1.5444e-08
382.2	1.4061e-08
382.4	1.3495e-08
382.6	1.3423e-08
382.8	1.3352e-08
383.0	1.3281e-08
383.2	1.3211e-08
383.4	1.3141e-08
383.6	1.3071e-08
383.8	1.3002e-08
384.0	1.2933e-08
384.2	1.2864e-08
384.4	1.2796e-08
384.6	1.2728e-08
384.8	1.2661e-08
385.0	1.2594e-08
385.2	1.2527e-08
385.4	1.246e-08
385.6	1.2394e-08
385.8	1.2329e-08
386.0	1.2263e-08
386.2	1.2198e-08
386.4	1.2134e-08
386.6	1.2069e-08
386.8	1.2005e-08
387.0	1.194e-08
387.2	1.1871e-08
387.4	1.1803e-08
387.6	1.1735e-08
387.8	1.1667e-08
388.0	1.16e-08
388.2	1.1533e-08
388.4	1.1467e-08
388.6	1.1401e-08
388.8	1.1335e-08
389.0	1.127e-08
389.2	1.1205e-08
389.4	1.114e-08
389.6	1.1076e-08
389.8	1.1012e-08
390.0	1.0949e-08
390.2	1.0886e-08
390.4	1.0823e-08
390.6	1.0761e-08
390.8	1.0699e-08
391.0	1.0637e-08
391.2	1.0576e-08
391.4	1.0515e-08
391.6	1.0503e-08
391.8	1.09e-08
392.0	1.1311e-08
392.2	1.1188e-08
392.4	1.1067e-08
392.6	1.0947e-08
392.8	1.0828e-08
393.0	1.1774e-08
393.2	1.3272e-08
393.4	1.496e-08
393.6	1.6864e-08
393.8	1.9009e-08
394.0	2.1427e-08
394.2	2.4153e-08
394.4	2.7225e-08
394.6	3.0688e-08
394.8	3.4592e-08
395.0	3.8993e-08
395.2	4.3953e-08
395.4	4.9544e-08
395.6	5.5847e-08
395.8	6.2951e-08
396.0	7.0959e-08
396.2	7.9986e-08
396.4	9.016e-08
396.6	1.0e-07
396.8	1.0e-07
397.0	1.0e-07
397.2	1.0e-07
397.4	1.0e-07
397.6	1.0e-07
397.8	1.0e-07
398.0	1.0e-07
398.2	1.0e-07
398.4	1.0e-07
398.6	1.0e-07
398.8	1.0e-07
399.0	1.0e-07
399.2	1.0e-07
399.4	1.0e-07
399.6	1.0e-07
399.8	1.0e-07
400.0	1.0e-07
400.2	1.0e-07
400.4	9.5099e-08
400.6	8.6937e-08
400.8	7.9475e-08
401.0	7.2654e-08
401.2	6.6418e-08
401.4	6.0718e-08
401.6	5.5506e-08
401.8	5.0742e-08
402.0	4.6387e-08
402.2	4.2406e-08
402.4	3.8766e-08
402.6	3.5439e-08
402.8	3.2397e-08
403.0	2.9617e-08
403.2	2.7075e-08
403.4	2.4751e-08
403.6	2.2627e-08
403.8	2.0685e-08
404.0	1.8909e-08
404.2	2.0667e-08
404.4	2.2608e-08
404.6	2.4732e-08
404.8	2.7056e-08
405.0	2.9597e-08
405.2	3.2378e-08
405.4	3.5419e-08
405.6	3.8746e-08
405.8	4.2386e-08
406.0	4.6368e-08
406.2	5.0724e-08
406.4	5.5489e-08
406.6	6.0701e-08
406.8	6.6403e-08
407.0	7.2641e-08
407.2	7.9465e-08
407.4	8.693e-08
407.6	9.5096e-08
407.8	9.5476e-08
408.0	8.594e-08
408.2	7.7356e-08
408.4	6.963e-08
408.6	6.2676e-08
408.8	5.6416e-08
409.0	5.0781e-08
409.2	4.5709e-08
409.4	4.1144e-08
409.6	3.7035e-08
409.8	3.3336e-08
410.0	3.0006e-08
410.2	2.7009e-08
410.4	2.4312e-08
410.6	2.1883e-08
410.8	1.9698e-08
411.0	1.773e-08
411.2	1.596e-08
411.4	1.4366e-08
411.6	1.5612e-08
411.8	1.7345e-08
412.0	1.927e-08
412.2	2.141e-08
412.4	2.3787e-08
412.6	2.6428e-08
412.8	2.9362e-08
413.0	3.2622e-08
413.2	3.6244e-08
413.4	4.0267e-08
413.6	4.4738e-08
413.8	4.9705e-08
414.0	5.5223e-08
414.2	6.1354e-08
414.4	6.8166e-08
414.6	7.5734e-08
414.8	8.4142e-08
415.0	9.3484e-08
415.2	9.6445e-08
415.4	8.7218e-08
415.6	7.8873e-08
415.8	7.1327e-08
416.0	6.4503e-08
416.2	5.8332e-08
416.4	5.2752e-08
416.6	4.7705e-08
416.8	4.3141e-08
417.0	3.9014e-08
417.2	3.5281e-08
417.4	3.1906e-08
417.6	2.8853e-08
417.8	2.6093e-08
418.0	2.3596e-08
418.2	2.1339e-08
418.4	1.9297e-08
418.6	1.7451e-08
418.8	1.5782e-08
419.0	1.6882e-08
419.2	1.8669e-08
419.4	2.0646e-08
419.6	2.2831e-08
419.8	2.5248e-08
420.0	2.792e-08
420.2	3.0876e-08
420.4	3.4144e-08
420.6	3.7758e-08
420.8	4.1755e-08
421.0	4.6175e-08
421.2	5.1063e-08
421.4	5.6468e-08
421.6	6.2445e-08
421.8	6.9055e-08
422.0	7.6365e-08
422.2	8.4448e-08
422.4	9.3387e-08
422.6	1.0e-07
422.8	1.0e-07
423.0	1.0e-07
423.2	1.0e-07
423.4	1.0e-07
423.6	1.0e-07
423.8	1.0e-07
424.0	1.0e-07
424.2	1.0e-07
424.4	1.0e-07
424.6	1.0e-07
424.8	1.0e-07
425.0	1.0e-07
425.2	1.0e-07
425.4	1.0e-07
425.6	1.0e-07
425.8	1.0e-07
426.0	1.0e-07
426.2	1.0e-07
426.4	1.0e-07
426.6	1.0e-07
426.8	1.0e-07
427.0	1.0e-07
427.2	1.0e-07
427.4	1.0e-07
427.6	1.0e-07
427.8	1.0e-07
428.0	1.0e-07
428.2	1.0e-07
428.4	1.0e-07
428.6	1.0e-07
428.8	1.0e-07
429.0	1.0e-07
429.2	1.0e-07
429.4	1.0e-07
429.6	1.0e-07
429.8	1.0e-07
430.0	1.0e-07
430.2	9.7372e-08
430.4	8.9358e-08
430.6	8.2003e-08
430.8	7.5254e-08
431.0	6.906e-08
431.2	6.3376e-08
431.4	5.816e-08
431.6	5.3373e-08
431.8	4.898e-08
432.0	4.4948e-08
432.2	4.1249e-08
432.4	3.7854e-08
432.6	3.4738e-08
432.8	3.1879e-08
433.0	2.9255e-08
433.2	2.6847e-08
433.4	2.4638e-08
433.6	2.261e-08
433.8	2.0749e-08
434.0	2.0207e-08
434.2	2.0052e-08
434.4	1.9898e-08
434.6	1.9746e-08
434.8	1.9594e-08
435.0	1.9444e-08
435.2	1.9295e-08
435.4	1.9147e-08
435.6	1.9e-08
435.8	1.8854e-08
436.0	1.871e-08
436.2	1.8566e-08
436.4	1.8424e-08
436.6	1.8283e-08
436.8	1.8143e-08
437.0	1.8003e-08
437.2	1.7865e-08
437.4	1.7728e-08
437.6	1.798e-08
437.8	1.9746e-08
438.0	2.1685e-08
438.2	2.3815e-08
438.4	2.6154e-08
438.6	2.8723e-08
438.8	3.1544e-08
439.0	3.4643e-08
439.2	3.8045e-08
439.4	4.1782e-08
439.6	4.5886e-08
439.8	5.0392e-08
440.0	5.5342e-08
440.2	6.0777e-08
440.4	6.6747e-08
440.6	7.3302e-08
440.8	8.0502e-08
441.0	8.8409e-08
441.2	9.7092e-08
441.4	1.0e-07
441.6	1.0e-07
441.8	1.0e-07
442.0	1.0e-07
442.2	1.0e-07
442.4	1.0e-07
442.6	1.0e-07
442.8	1.0e-07
443.0	1.0e-07
443.2	1.0e-07
443.4	1.0e-07
443.6	1.0e-07
443.8	1.0e-07
444.0	1.0e-07
444.2	1.0e-07
444.4	1.0e-07
444.6	1.0e-07
444.8	1.0e-07
445.0	1.0e-07
445.2	1.0e-07
445.4	1.0e-07
445.6	1.0e-07
445.8	1.0e-07
446.0	1.0e-07
446.2	1.0e-07
446.4	1.0e-07
446.6	1.0e-07
446.8	1.0e-07
447.0	1.0e-07
447.2	1.0e-07
447.4	1.0e-07
447.6	1.0e-07
447.8	1.0e-07
448.0	1.0e-07
448.2	1.0e-07
448.4	1.0e-07
448.6	1.0e-07
448.8	1.0e-07
449.0	1.0e-07
449.2	1.0e-07
449.4	1.0e-07
449.6	1.0e-07
449.8	1.0e-07
450.0	1.0e-07
450.2	1.0e-07
450.4	1.0e-07
450.6	1.0e-07
450.8	1.0e-07
451.0	1.0e-07
451.2	1.0e-07
451.4	1.0e-07
451.6	1.0e-07
451.8	1.0e-07
452.0	1.0e-07
452.2	1.0e-07
452.4	1.0e-07
452.6	1.0e-07
452.8	1.0e-07
453.0	1.0e-07
453.2	1.0e-07
453.4	1.0e-07
453.6	1.0e-07
453.8	1.0e-07
454.0	1.0e-07
454.2	1.0e-07
454.4	1.0e-07
454.6	1.0e-07
454.8	1.0e-07
455.0	1.0e-07
455.2	1.0e-07
455.4	1.0e-07
455.6	1.0e-07
455.8	1.0e-07
456.0	1.0e-07
456.2	1.0e-07
456.4	1.0e-07
456.6	1.0e-07
456.8	1.0e-07
457.0	1.0e-07
457.2	1.0e-07
457.4	1.0e-07
457.6	1.0e-07
457.8	1.0e-07
458.0	1.0e-07
458.2	1.0e-07
458.4	1.0e-07
458.6	1.0e-07
458.8	1.0e-07
459.0	1.0e-07
459.2	1.0e-07
459.4	1.0e-07
459.6	1.0e-07
459.8	9.8873e-08
460.0	9.2674e-08
460.2	8.6864e-08
460.4	8.1418e-08
460.6	7.6313e-08
460.8	7.1529e-08
461.0	6.7044e-08
461.2	6.2841e-08
461.4	5.8901e-08
461.6	5.5208e-08
461.8	5.1746e-08
462.0	4.8502e-08
462.2	4.5461e-08
462.4	4.2611e-08
462.6	3.9939e-08
462.8	3.7435e-08
463.0	3.5088e-08
463.2	3.2888e-08
463.4	3.0826e-08
463.6	3.1656e-08
463.8	3.3775e-08
464.0	3.6036e-08
464.2	3.8447e-08
464.4	4.1021e-08
464.6	4.3766e-08
464.8	4.6695e-08
465.0	4.982e-08
465.2	5.3155e-08
465.4	5.6712e-08
465.6	6.0508e-08
465.8	6.4558e-08
466.0	6.8878e-08
466.2	7.3488e-08
466.4	7.8407e-08
466.6	8.3654e-08
466.8	8.9253e-08
467.0	9.5227e-08
467.2	9.5534e-08
467.4	7.9281e-08
467.6	6.5793e-08
467.8	5.46e-08
468.0	4.5311e-08
468.2	4.8211e-08
468.4	5.1297e-08
468.6	5.458e-08
468.8	5.8073e-08
469.0	6.179e-08
469.2	6.5745e-08
469.4	6.9953e-08
469.6	7.443e-08
469.8	7.9194e-08
470.0	8.4263e-08
470.2	8.9656e-08
470.4	9.5394e-08
470.6	9.8234e-08
470.8	9.1203e-08
471.0	8.4675e-08
471.2	7.8615e-08
471.4	7.2989e-08
471.6	6.7765e-08
471.8	6.2915e-08
472.0	5.8412e-08
472.2	5.4231e-08
472.4	5.035e-08
472.6	4.6746e-08
472.8	4.3401e-08
473.0	4.0295e-08
473.2	3.7411e-08
473.4	3.4733e-08
473.6	3.2247e-08
473.8	2.9939e-08
474.0	2.7797e-08
474.2	2.5807e-08
474.4	2.6764e-08
474.6	2.8829e-08
474.8	3.1052e-08
475.0	3.3447e-08
475.2	3.6027e-08
475.4	3.8806e-08
475.6	4.1799e-08
475.8	4.5023e-08
476.0	4.8496e-08
476.2	5.2236e-08
476.4	5.6265e-08
476.6	6.0605e-08
476.8	6.528e-08
477.0	7.0315e-08
477.2	7.5738e-08
477.4	8.158e-08
477.6	8.7872e-08
477.8	9.465e-08
478.0	1.0317e-07
478.2	1.1634e-07
478.4	1.3119e-07
478.6	1.4793e-07
478.8	1.6681e-07
479.0	1.881e-07
479.2	2.1211e-07
479.4	2.3918e-07
479.6	2.6971e-07
479.8	3.0413e-07
480.0	3.4295e-07
480.2	3.8672e-07
480.4	4.3607e-07
480.6	4.9173e-07
480.8	5.5449e-07
481.0	6.2526e-07
481.2	7.0506e-07
481.4	7.9504e-07
481.6	8.9651e-07
481.8	8.3921e-07
482.0	7.4652e-07
482.2	6.6407e-07
482.4	5.9072e-07
482.6	5.2548e-07
482.8	4.6744e-07
483.0	4.1581e-07
483.2	3.6989e-07
483.4	3.2903e-07
483.6	2.9269e-07
483.8	2.6037e-07
484.0	2.3161e-07
484.2	2.0603e-07
484.4	1.8327e-07
484.6	1.6303e-07
484.8	1.4502e-07
485.0	1.2901e-07
485.2	1.1476e-07
485.4	1.0581e-07
485.6	1.0548e-07
485.8	1.0516e-07
486.0	1.0483e-07
486.2	1.045e-07
486.4	1.0418e-07
486.6	1.0385e-07
486.8	1.0353e-07
487.0	1.0321e-07
487.2	1.0289e-07
487.4	1.0257e-07
487.6	1.0225e-07
487.8	1.0193e-07
488.0	1.0161e-07
488.2	1.013e-07
488.4	1.0098e-07
488.6	1.0067e-07
488.8	1.0036e-07
489.0	1.0004e-07
489.2	9.3612e-08
489.4	8.6695e-08
489.6	8.0289e-08
489.8	7.4356e-08
490.0	6.8862e-08
490.2	6.3774e-08
490.4	5.9062e-08
490.6	5.4698e-08
490.8	5.0656e-08
491.0	4.6913e-08
491.2	4.3447e-08
491.4	4.0237e-08
491.6	3.7264e-08
491.8	3.451e-08
492.0	3.196e-08
492.2	2.9599e-08
492.4	2.7412e-08
492.6	2.5386e-08
492.8	2.5087e-08
493.0	2.7167e-08
493.2	2.9419e-08
493.4	3.1858e-08
493.6	3.4499e-08
493.8	3.7359e-08
494.0	4.0456e-08
494.2	4.381e-08
494.4	4.7441e-08
494.6	5.1374e-08
494.8	5.5633e-08
495.0	6.0245e-08
495.2	6.5239e-08
495.4	7.0648e-08
495.6	7.6504e-08
495.8	8.2846e-08
496.0	8.9714e-08
496.2	9.7152e-08
496.4	1.0521e-07
496.6	9.8046e-08
496.8	9.1094e-08
497.0	8.4635e-08
497.2	7.8634e-08
497.4	7.3059e-08
497.6	6.7879e-08
497.8	6.3066e-08
498.0	5.8594e-08
498.2	5.4439e-08
498.4	5.0579e-08
498.6	4.6993e-08
498.8	4.3661e-08
499.0	4.0565e-08
499.2	3.7689e-08
499.4	3.5017e-08
499.6	3.2534e-08
499.8	3.0227e-08
500.0	2.8084e-08
500.2	3.9368e-08
500.4	5.5186e-08
500.6	7.736e-08
500.8	1.0e-07
501.0	1.0e-07
501.2	1.0e-07
501.4	1.0e-07
501.6	1.0e-07
501.8	1.0e-07
502.0	1.0e-07
502.2	1.0e-07
502.4	1.0e-07
502.6	1.0e-07
502.8	1.0e-07
503.0	1.0e-07
503.2	1.0e-07
503.4	1.0e-07
503.6	1.0e-07
503.8	1.0e-07
504.0	1.0e-07
504.2	1.0e-07
504.4	1.0e-07
504.6	1.0e-07
504.8	1.0e-07
505.0	1.0e-07
505.2	1.0e-07
505.4	1.0e-07
505.6	1.0e-07
505.8	1.0e-07
506.0	1.0e-07
506.2	1.0e-07
506.4	1.0e-07
506.6	1.0e-07
506.8	1.0e-07
507.0	1.0e-07
507.2	1.0e-07
507.4	1.0e-07
507.6	1.0e-07
507.8	1.0e-07
508.0	1.0e-07
508.2	1.0e-07
508.4	1.0e-07
508.6	1.0e-07
508.8	1.0e-07
509.0	1.0e-07
509.2	1.0e-07
509.4	1.0e-07
509.6	1.0e-07
509.8	1.0e-07
510.0	1.0e-07
510.2	1.0e-07
510.4	1.0e-07
510.6	1.0e-07
510.8	1.0e-07
511.0	1.0e-07
511.2	1.0e-07
511.4	1.0e-07
511.6	1.0e-07
511.8	1.0e-07
512.0	1.0285e-07
512.2	1.0647e-07
512.4	1.1023e-07
512.6	1.1412e-07
512.8	1.1814e-07
513.0	1.2231e-07
513.2	1.2662e-07
513.4	1.3109e-07
513.6	1.3571e-07
513.8	1.405e-07
514.0	1.4545e-07
514.2	1.5058e-07
514.4	1.559e-07
514.6	1.6139e-07
514.8	1.6709e-07
515.0	1.7298e-07
515.2	1.7908e-07
515.4	1.854e-07
515.6	1.8524e-07
515.8	1.7328e-07
516.0	1.6208e-07
516.2	1.5162e-07
516.4	1.4182e-07
516.6	1.3266e-07
516.8	1.2409e-07
517.0	1.1608e-07
517.2	1.0858e-07
517.4	1.0157e-07
517.6	9.5008e-08
517.8	8.8872e-08
518.0	8.3132e-08
518.2	7.7762e-08
518.4	7.274e-08
518.6	6.8042e-08
518.8	6.3647e-08
519.0	5.9536e-08
519.2	5.5691e-08
519.4	5.697e-08
519.6	5.8828e-08
519.8	6.0747e-08
520.0	6.2728e-08
520.2	6.4774e-08
520.4	6.6887e-08
520.6	6.9068e-08
520.8	7.1321e-08
521.0	7.3648e-08
521.2	7.605e-08
521.4	7.853e-08
521.6	8.1092e-08
521.8	8.3737e-08
522.0	8.6468e-08
522.2	8.9288e-08
522.4	9.2201e-08
522.6	9.5208e-08
522.8	9.8313e-08
523.0	1.0e-07
523.2	1.0e-07
523.4	1.0e-07
523.6	1.0e-07
523.8	1.0e-07
524.0	1.0e-07
524.2	1.0e-07
524.4	1.0e-07
524.6	1.0e-07
524.8	1.0e-07
525.0	1.0e-07
525.2	1.0e-07
525.4	1.0e-07
525.6	1.0e-07
525.8	1.0e-07
526.0	1.0e-07
526.2	1.0e-07
526.4	1.0e-07
526.6	1.0e-07
526.8	1.0e-07
527.0	1.0e-07
527.2	1.0e-07
527.4	1.0e-07
527.6	1.0e-07
527.8	1.0e-07
528.0	1.0e-07
528.2	1.0e-07
528.4	1.0e-07
528.6	1.0e-07
528.8	1.0e-07
529.0	1.0e-07
529.2	1.0e-07
529.4	1.0e-07
529.6	1.0e-07
529.8	1.0e-07
530.0	1.0e-07
530.2	1.0e-07
530.4	9.8508e-08
530.6	9.6168e-08
530.8	9.3883e-08
531.0	9.1652e-08
531.2	8.9475e-08
531.4	8.7349e-08
531.6	8.5273e-08
531.8	8.3247e-08
532.0	8.1269e-08
532.2	7.9339e-08
532.4	7.7453e-08
532.6	7.5613e-08
532.8	7.3817e-08
533.0	7.2063e-08
533.2	7.0351e-08
533.4	6.8679e-08
533.6	6.7047e-08
533.8	6.5454e-08
534.0	6.4579e-08
534.2	6.6152e-08
534.4	6.7762e-08
534.6	6.9413e-08
534.8	7.1103e-08
535.0	7.2834e-08
535.2	7.4608e-08
535.4	7.6425e-08
535.6	7.8286e-08
535.8	8.0192e-08
536.0	8.2145e-08
536.2	8.4145e-08
536.4	8.6194e-08
536.6	8.8293e-08
536.8	9.0443e-08
537.0	9.2646e-08
537.2	9.4902e-08
537.4	9.7213e-08
537.6	9.958e-08
537.8	9.8593e-08
538.0	9.6913e-08
538.2	9.5262e-08
538.4	9.3639e-08
538.6	9.2044e-08
538.8	9.0476e-08
539.0	8.8935e-08
539.2	8.742e-08
539.4	8.5931e-08
539.6	8.4467e-08
539.8	8.3028e-08
540.0	8.1614e-08
540.2	8.0224e-08
540.4	7.8857e-08
540.6	7.7514e-08
540.8	7.6193e-08
541.0	7.4895e-08
541.2	7.362e-08
541.4	7.7707e-08
541.6	8.9804e-08
541.8	1.0378e-07
542.0	1.1994e-07
542.2	1.3861e-07
542.4	1.6019e-07
542.6	1.8513e-07
542.8	2.1394e-07
543.0	2.4725e-07
543.2	2.6679e-07
543.4	2.8787e-07
543.6	3.1061e-07
543.8	3.2431e-07
544.0	3.345e-07
544.2	3.4502e-07
544.4	3.5587e-07
544.6	3.6706e-07
544.8	3.786e-07
545.0	3.905e-07
545.2	4.0278e-07
545.4	4.1545e-07
545.6	4.2851e-07
545.8	4.4198e-07
546.0	4.5588e-07
546.2	4.7021e-07
546.4	4.85e-07
546.6	5.0024e-07
546.8	5.1597e-07
547.0	5.322e-07
547.2	5.4893e-07
547.4	5.4818e-07
547.6	4.9809e-07
547.8	4.5258e-07
548.0	4.1123e-07
548.2	3.7365e-07
548.4	3.3951e-07
548.6	3.0849e-07
548.8	2.803e-07
549.0	2.5469e-07
549.2	2.3142e-07
549.4	2.1027e-07
549.6	1.9106e-07
549.8	1.736e-07
550.0	1.5774e-07
550.2	1.4333e-07
550.4	1.3023e-07
550.6	1.1833e-07
550.8	1.0752e-07
551.0	9.7695e-08
551.2	9.0667e-08
551.4	8.462e-08
551.6	7.8976e-08
551.8	7.3708e-08
552.0	6.8792e-08
552.2	6.4204e-08
552.4	5.9921e-08
552.6	5.5925e-08
552.8	5.2194e-08
553.0	4.8713e-08
553.2	4.5464e-08
553.4	4.2432e-08
553.6	3.9601e-08
553.8	3.696e-08
554.0	3.4495e-08
554.2	3.2194e-08
554.4	3.0047e-08
554.6	2.8043e-08
554.8	2.7114e-08
555.0	2.8121e-08
555.2	2.9166e-08
555.4	3.025e-08
555.6	3.1374e-08
555.8	3.2539e-08
556.0	3.3748e-08
556.2	3.5002e-08
556.4	3.6302e-08
556.6	3.7651e-08
556.8	3.905e-08
557.0	4.0501e-08
557.2	4.2006e-08
557.4	4.3566e-08
557.6	4.5185e-08
557.8	4.6864e-08
558.0	4.8605e-08
558.2	5.0411e-08
558.4	5.2283e-08
558.6	5.6099e-08
558.8	6.046e-08
559.0	6.5159e-08
559.2	7.0224e-08
559.4	7.5682e-08
559.6	8.1564e-08
559.8	8.7904e-08
560.0	9.4736e-08
560.2	1.021e-07
560.4	1.1004e-07
560.6	1.1859e-07
560.8	1.2781e-07
561.0	1.3774e-07
561.2	1.4845e-07
561.4	1.5998e-07
561.6	1.7242e-07
561.8	1.8582e-07
562.0	2.0026e-07
562.2	2.0302e-07
562.4	1.9097e-07
562.6	1.7965e-07
562.8	1.6899e-07
563.0	1.5897e-07
563.2	1.4954e-07
563.4	1.4067e-07
563.6	1.3232e-07
563.8	1.2447e-07
564.0	1.1709e-07
564.2	1.1014e-07
564.4	1.0361e-07
564.6	9.7464e-08
564.8	9.1683e-08
565.0	8.6244e-08
565.2	8.1128e-08
565.4	7.6316e-08
565.6	7.1789e-08
565.8	6.7659e-08
566.0	6.8676e-08
566.2	6.9708e-08
566.4	7.0756e-08
566.6	7.1819e-08
566.8	7.2899e-08
567.0	7.3994e-08
567.2	7.5106e-08
567.4	7.6235e-08
567.6	7.7381e-08
567.8	7.8544e-08
568.0	7.9724e-08
568.2	8.0923e-08
568.4	8.2139e-08
568.6	8.3373e-08
568.8	8.4626e-08
569.0	8.5898e-08
569.2	8.7189e-08
569.4	8.8499e-08
569.6	9.2189e-08
569.8	9.7638e-08
570.0	1.0341e-07
570.2	1.0952e-07
570.4	1.1599e-07
570.6	1.2285e-07
570.8	1.3011e-07
571.0	1.378e-07
571.2	1.4595e-07
571.4	1.5457e-07
571.6	1.6371e-07
571.8	1.7338e-07
572.0	1.8363e-07
572.2	1.9448e-07
572.4	2.0598e-07
572.6	2.1815e-07
572.8	2.3105e-07
573.0	2.447e-07
573.2	2.4839e-07
573.4	2.149e-07
573.6	1.8592e-07
573.8	1.6085e-07
574.0	1.3916e-07
574.2	1.204e-07
574.4	1.0417e-07
574.6	9.0121e-08
574.8	7.797e-08
575.0	6.7457e-08
575.2	5.8361e-08
575.4	5.0492e-08
575.6	4.3684e-08
575.8	3.7794e-08
576.0	3.2698e-08
576.2	2.8289e-08
576.4	2.4475e-08
576.6	2.1175e-08
576.8	1.832e-08
577.0	1.9252e-08
577.2	2.1144e-08
577.4	2.3223e-08
577.6	2.5506e-08
577.8	2.8014e-08
578.0	3.0768e-08
578.2	3.3792e-08
578.4	3.7114e-08
578.6	4.0763e-08
578.8	4.477e-08
579.0	4.9172e-08
579.2	5.4006e-08
579.4	5.9315e-08
579.6	6.5146e-08
579.8	7.1551e-08
580.0	7.8585e-08
580.2	8.631e-08
580.4	9.4795e-08
580.6	1.0e-07
580.8	1.0e-07
581.0	1.0e-07
581.2	1.0e-07
581.4	1.0e-07
581.6	1.0e-07
581.8	1.0e-07
582.0	1.0e-07
582.2	1.0e-07
582.4	1.0e-07
582.6	1.0e-07
582.8	1.0e-07
583.0	1.0e-07
583.2	1.0e-07
583.4	1.0e-07
583.6	1.0e-07
583.8	1.0e-07
584.0	1.0e-07
584.2	1.0e-07
584.4	1.0e-07
584.6	1.0e-07
584.8	1.0e-07
585.0	1.0e-07
585.2	1.0e-07
585.4	1.0e-07
585.6	1.0e-07
585.8	1.0e-07
586.0	1.0e-07
586.2	1.0e-07
586.4	1.0e-07
586.6	1.0e-07
586.8	1.0e-07
587.0	1.0e-07
587.2	1.0e-07
587.4	1.0e-07
587.6	1.0e-07
587.8	1.0e-07
588.0	1.0e-07
588.2	1.0e-07
588.4	1.0e-07
588.6	1.0e-07
588.8	1.0e-07
589.0	1.0e-07
589.2	1.0e-07
589.4	1.0e-07
589.6	1.0e-07
589.8	1.0e-07
590.0	1.0e-07
590.2	1.0e-07
590.4	1.0e-07
590.6	1.0e-07
590.8	1.0e-07
591.0	1.0e-07
591.2	1.0e-07
591.4	1.0e-07
591.6	1.0e-07
591.8	1.0e-07
592.0	1.0e-07
592.2	1.0e-07
592.4	1.0e-07
592.6	1.0e-07
592.8	1.0e-07
593.0	1.0e-07
593.2	1.0e-07
593.4	1.0e-07
593.6	1.0e-07
593.8	1.0e-07
594.0	1.0e-07
594.2	1.0e-07
594.4	1.0e-07
594.6	1.0e-07
594.8	1.0e-07
595.0	1.0e-07
595.2	1.0e-07
595.4	9.7595e-08
595.6	9.5236e-08
595.8	9.2934e-08
596.0	9.0688e-08
596.2	8.8496e-08
596.4	8.6357e-08
596.6	8.427e-08
596.8	8.2233e-08
597.0	8.0246e-08
597.2	7.8306e-08
597.4	7.6414e-08
597.6	7.4567e-08
597.8	7.2764e-08
598.0	7.1006e-08
598.2	6.929e-08
598.4	6.7615e-08
598.6	6.5981e-08
598.8	6.4386e-08
599.0	6.4892e-08
599.2	6.6501e-08
599.4	6.8149e-08
599.6	6.9838e-08
599.8	7.1568e-08
600.0	7.3342e-08
600.2	7.5159e-08
600.4	7.7022e-08
600.6	7.8931e-08
600.8	8.0887e-08
601.0	8.2891e-08
601.2	8.4946e-08
601.4	8.7051e-08
601.6	8.9208e-08
601.8	9.1419e-08
602.0	9.3684e-08
602.2	9.6006e-08
602.4	9.8385e-08
602.6	1.0e-07
602.8	1.0e-07
603.0	1.0e-07
603.2	1.0e-07
603.4	1.0e-07
603.6	1.0e-07
603.8	1.0e-07
604.0	1.0e-07
604.2	1.0e-07
604.4	1.0e-07
604.6	1.0e-07
604.8	1.0e-07
605.0	1.0e-07
605.2	1.0e-07
605.4	1.0e-07
605.6	1.0e-07
605.8	1.0e-07
606.0	1.0e-07
606.2	9.9813e-08
606.4	9.2614e-08
606.6	8.5934e-08
606.8	7.9736e-08
607.0	7.3985e-08
607.2	6.8648e-08
607.4	6.3697e-08
607.6	5.9103e-08
607.8	5.484e-08
608.0	5.0884e-08
608.2	5.7296e-08
608.4	6.4517e-08
608.6	7.2647e-08
608.8	8.0083e-08
609.0	7.4352e-08
609.2	6.9032e-08
609.4	6.4092e-08
609.6	5.9505e-08
609.8	5.5247e-08
610.0	5.1293e-08
610.2	4.7623e-08
610.4	4.4215e-08
610.6	4.1051e-08
610.8	3.8113e-08
611.0	3.5386e-08
611.2	3.2853e-08
611.4	3.0502e-08
611.6	2.832e-08
611.8	2.6293e-08
612.0	2.4411e-08
612.2	2.2665e-08
612.4	2.1043e-08
612.6	2.171e-08
612.8	2.3384e-08
613.0	2.5188e-08
613.2	2.7131e-08
613.4	2.9223e-08
613.6	3.1477e-08
613.8	3.3905e-08
614.0	3.652e-08
614.2	3.9336e-08
614.4	4.237e-08
614.6	4.5638e-08
614.8	4.9158e-08
615.0	5.2949e-08
615.2	5.7033e-08
615.4	6.1432e-08
615.6	6.617e-08
615.8	7.1273e-08
616.0	7.677e-08
616.2	8.0191e-08
616.4	7.8472e-08
616.6	7.679e-08
616.8	7.5144e-08
617.0	7.3533e-08
617.2	7.1957e-08
617.4	7.0414e-08
617.6	6.8905e-08
617.8	6.7428e-08
618.0	6.5983e-08
618.2	6.4568e-08
618.4	6.3184e-08
618.6	6.183e-08
618.8	6.0504e-08
619.0	5.9208e-08
619.2	5.7938e-08
619.4	5.6696e-08
619.6	5.5481e-08
619.8	5.4292e-08
620.0	5.4021e-08
620.2	5.3815e-08
620.4	5.3608e-08
620.6	5.3403e-08
620.8	5.3199e-08
621.0	5.2995e-08
621.2	5.2792e-08
621.4	5.259e-08
621.6	5.2389e-08
621.8	5.2188e-08
622.0	5.1988e-08
622.2	5.1789e-08
622.4	5.1591e-08
622.6	5.1393e-08
622.8	5.1197e-08
623.0	5.1001e-08
623.2	5.0805e-08
623.4	5.0611e-08
623.6	5.1804e-08
623.8	5.4145e-08
624.0	5.6592e-08
624.2	5.915e-08
624.4	6.1823e-08
624.6	6.4617e-08
624.8	6.7537e-08
625.0	7.0589e-08
625.2	7.3779e-08
625.4	7.7113e-08
625.6	8.0598e-08
625.8	8.4241e-08
626.0	8.8048e-08
626.2	9.2027e-08
626.4	9.6186e-08
626.6	1.0053e-07
626.8	1.0508e-07
627.0	1.0982e-07
627.2	1.1422e-07
627.4	1.1654e-07
627.6	1.1891e-07
627.8	1.2132e-07
628.0	1.2379e-07
628.2	1.263e-07
628.4	1.2886e-07
628.6	1.3148e-07
628.8	1.3415e-07
629.0	1.3687e-07
629.2	1.3965e-07
629.4	1.4249e-07
629.6	1.4538e-07
629.8	1.4833e-07
630.0	1.5135e-07
630.2	1.5442e-07
630.4	1.5755e-07
630.6	1.6075e-07
630.8	1.6402e-07
631.0	1.6598e-07
631.2	1.6773e-07
631.4	1.6951e-07
631.6	1.713e-07
631.8	1.7311e-07
632.0	1.7493e-07
632.2	1.7678e-07
632.4	1.7865e-07
632.6	1.8054e-07
632.8	1.8244e-07
633.0	1.8437e-07
633.2	1.8632e-07
633.4	1.8828e-07
633.6	1.9027e-07
633.8	1.9228e-07
634.0	1.9431e-07
634.2	1.9637e-07
634.4	1.9844e-07
634.6	2.0766e-07
634.8	2.2458e-07
635.0	2.4287e-07
635.2	2.6266e-07
635.4	2.8405e-07
635.6	3.0719e-07
635.8	3.3222e-07
636.0	3.5928e-07
636.2	3.8855e-07
636.4	4.202e-07
636.6	4.5443e-07
636.8	4.9145e-07
637.0	5.3148e-07
637.2	5.7478e-07
637.4	6.216e-07
637.6	6.7223e-07
637.8	7.2699e-07
638.0	7.8622e-07
638.2	8.2943e-07
638.4	7.8442e-07
638.6	7.4186e-07
638.8	7.016e-07
639.0	6.6353e-07
639.2	6.2753e-07
639.4	5.9347e-07
639.6	5.6127e-07
639.8	5.3081e-07
640.0	5.0201e-07
640.2	4.7477e-07
640.4	4.4901e-07
640.6	4.2464e-07
640.8	4.016e-07
641.0	3.7981e-07
641.2	3.592e-07
641.4	3.3971e-07
641.6	3.2128e-07
641.8	3.0384e-07
642.0	3.041e-07
642.2	3.0705e-07
642.4	3.1004e-07
642.6	3.1305e-07
642.8	3.1609e-07
643.0	3.1916e-07
643.2	3.2226e-07
643.4	3.254e-07
643.6	3.2856e-07
643.8	3.3175e-07
644.0	3.3498e-07
644.2	3.3823e-07
644.4	3.4152e-07
644.6	3.4484e-07
644.8	3.4819e-07
645.0	3.5157e-07
645.2	3.5499e-07
645.4	3.5844e-07
645.6	3.4637e-07
645.8	3.2312e-07
646.0	3.0143e-07
646.2	2.8119e-07
646.4	2.6232e-07
646.6	2.4471e-07
646.8	2.2829e-07
647.0	2.1296e-07
647.2	1.9867e-07
647.4	1.8533e-07
647.6	1.7289e-07
647.8	1.6129e-07
648.0	1.5046e-07
648.2	1.4036e-07
648.4	1.3094e-07
648.6	1.2215e-07
648.8	1.1395e-07
649.0	1.063e-07
649.2	1.0336e-07
649.4	1.1306e-07
649.6	1.2367e-07
649.8	1.3528e-07
650.0	1.4798e-07
650.2	1.6187e-07
650.4	1.7706e-07
650.6	1.9368e-07
650.8	2.1186e-07
651.0	2.3175e-07
651.2	2.5351e-07
651.4	2.773e-07
651.6	3.0333e-07
651.8	3.318e-07
652.0	3.6295e-07
652.2	3.9702e-07
652.4	4.3429e-07
652.6	4.7505e-07
652.8	5.1964e-07
653.0	5.1183e-07
653.2	5.0249e-07
653.4	4.9333e-07
653.6	4.8434e-07
653.8	4.7551e-07
654.0	4.6684e-07
654.2	4.5832e-07
654.4	4.4997e-07
654.6	4.4176e-07
654.8	4.3371e-07
655.0	4.258e-07
655.2	4.1804e-07
655.4	4.1041e-07
655.6	4.0293e-07
655.8	3.9559e-07
656.0	3.8837e-07
656.2	3.8129e-07
656.4	3.7434e-07
656.6	3.6787e-07
656.8	3.6168e-07
657.0	3.5559e-07
657.2	3.496e-07
657.4	3.4372e-07
657.6	3.3793e-07
657.8	3.3224e-07
658.0	3.2665e-07
658.2	3.2115e-07
658.4	3.1574e-07
658.6	3.1043e-07
658.8	3.052e-07
659.0	3.0006e-07
659.2	2.9501e-07
659.4	2.9004e-07
659.6	2.8516e-07
659.8	2.8036e-07
660.0	2.7564e-07
660.2	2.6079e-07
660.4	2.3402e-07
660.6	2.0999e-07
660.8	1.8843e-07
661.0	1.6908e-07
661.2	1.5172e-07
661.4	1.3614e-07
661.6	1.2216e-07
661.8	1.0962e-07
662.0	9.8361e-08
662.2	8.8261e-08
662.4	7.9199e-08
662.6	7.1066e-08
662.8	6.3769e-08
663.0	5.7221e-08
663.2	5.1346e-08
663.4	4.6074e-08
663.6	4.1343e-08
663.8	3.807e-08
664.0	4.0159e-08
664.2	4.2361e-08
664.4	4.4685e-08
664.6	4.7136e-08
664.8	4.9721e-08
665.0	5.2449e-08
665.2	5.5325e-08
665.4	5.836e-08
665.6	6.1561e-08
665.8	6.4938e-08
666.0	6.85e-08
666.2	7.2257e-08
666.4	7.6221e-08
666.6	8.0401e-08
666.8	8.4812e-08
667.0	8.9464e-08
667.2	9.4371e-08
667.4	9.9547e-08
667.6	1.0726e-07
667.8	1.158e-07
668.0	1.2502e-07
668.2	1.3498e-07
668.4	1.4573e-07
668.6	1.5733e-07
668.8	1.6986e-07
669.0	1.8339e-07
669.2	1.9799e-07
669.4	2.1376e-07
669.6	2.3078e-07
669.8	2.4915e-07
670.0	2.6899e-07
670.2	2.9041e-07
670.4	3.1354e-07
670.6	3.385e-07
670.8	3.6546e-07
671.0	3.9456e-07
671.2	3.9461e-07
671.4	3.804e-07
671.6	3.6669e-07
671.8	3.5348e-07
672.0	3.4075e-07
672.2	3.2847e-07
672.4	3.1664e-07
672.6	3.0523e-07
672.8	2.9423e-07
673.0	2.8363e-07
673.2	2.8984e-07
673.4	2.9618e-07
673.6	3.0266e-07
673.8	3.0928e-07
674.0	3.0077e-07
674.2	2.7529e-07
674.4	2.5197e-07
674.6	2.3063e-07
674.8	2.1109e-07
675.0	1.9321e-07
675.2	1.7685e-07
675.4	1.6187e-07
675.6	1.4816e-07
675.8	1.3561e-07
676.0	1.2412e-07
676.2	1.1361e-07
676.4	1.0398e-07
676.6	9.5176e-08
676.8	8.7114e-08
677.0	7.9735e-08
677.2	7.2982e-08
677.4	6.68e-08
677.6	6.1856e-08
677.8	6.2134e-08
678.0	6.2412e-08
678.2	6.2692e-08
678.4	6.2974e-08
678.6	6.3256e-08
678.8	6.354e-08
679.0	6.3825e-08
679.2	6.4111e-08
679.4	6.4398e-08
679.6	6.4687e-08
679.8	6.4977e-08
680.0	6.5269e-08
680.2	6.5562e-08
680.4	6.5856e-08
680.6	6.6151e-08
680.8	6.6448e-08
681.0	6.6746e-08
681.2	6.7045e-08
681.4	6.681e-08
681.6	6.6452e-08
681.8	6.6096e-08
682.0	6.5741e-08
682.2	6.5388e-08
682.4	6.5037e-08
682.6	6.4688e-08
682.8	6.4341e-08
683.0	6.3996e-08
683.2	6.3653e-08
683.4	6.3311e-08
683.6	6.2972e-08
683.8	6.2634e-08
684.0	6.2298e-08
684.2	6.1964e-08
684.4	6.1631e-08
684.6	6.1301e-08
684.8	6.0972e-08
685.0	6.2835e-08
685.2	6.7046e-08
685.4	7.154e-08
685.6	7.6334e-08
685.8	8.1451e-08
686.0	8.691e-08
686.2	9.2735e-08
686.4	9.895e-08
686.6	1.0558e-07
686.8	1.1266e-07
687.0	1.2021e-07
687.2	1.2827e-07
687.4	1.3686e-07
687.6	1.4604e-07
687.8	1.5582e-07
688.0	1.6627e-07
688.2	1.7741e-07
688.4	1.893e-07
688.6	1.9952e-07
688.8	2.0104e-07
689.0	2.0258e-07
689.2	2.0413e-07
689.4	2.0569e-07
689.6	2.0727e-07
689.8	2.0885e-07
690.0	2.1045e-07
690.2	2.1206e-07
690.4	2.1368e-07
690.6	2.1532e-07
690.8	2.1697e-07
691.0	2.1863e-07
691.2	2.203e-07
691.4	2.2198e-07
691.6	2.2368e-07
691.8	2.2539e-07
692.0	2.2712e-07
692.2	2.2886e-07
692.4	2.1988e-07
692.6	2.1049e-07
692.8	2.0151e-07
693.0	1.9291e-07
693.2	1.8468e-07
693.4	1.768e-07
693.6	1.6926e-07
693.8	1.6204e-07
694.0	1.5512e-07
694.2	1.485e-07
694.4	1.4217e-07
694.6	1.361e-07
694.8	1.3029e-07
695.0	1.2473e-07
695.2	1.1941e-07
695.4	1.1432e-07
695.6	1.0944e-07
695.8	1.0477e-07
696.0	1.0207e-07
696.2	1.0037e-07
696.4	9.8693e-08
696.6	9.7045e-08
696.8	9.5425e-08
697.0	9.3833e-08
697.2	9.2266e-08
697.4	9.0726e-08
697.6	8.9212e-08
697.8	8.7723e-08
698.0	8.6259e-08
698.2	8.4819e-08
698.4	8.3403e-08
698.6	8.2011e-08
698.8	8.0642e-08
699.0	7.9296e-08
699.2	7.7972e-08
699.4	7.6671e-08
699.6	7.5982e-08
699.8	7.6226e-08
700.0	7.647e-08
700.2	7.6715e-08
700.4	7.6961e-08
700.6	7.7208e-08
700.8	7.7456e-08
701.0	7.7704e-08
701.2	7.7953e-08
701.4	7.8203e-08
701.6	7.8454e-08
701.8	7.8705e-08
702.0	7.8958e-08
702.2	7.9211e-08
702.4	7.9465e-08
702.6	7.972e-08
702.8	7.9975e-08
703.0	8.0232e-08
703.2	8.0467e-08
703.4	8.0565e-08
703.6	8.0664e-08
703.8	8.0763e-08
704.0	8.0862e-08
704.2	8.0961e-08
704.4	8.106e-08
704.6	8.1159e-08
704.8	8.1259e-08
705.0	8.1358e-08
705.2	8.1458e-08
705.4	8.1558e-08
705.6	8.1658e-08
705.8	8.1758e-08
706.0	8.1858e-08
706.2	8.1958e-08
706.4	8.2059e-08
706.6	8.2159e-08
706.8	8.226e-08
707.0	8.3333e-08
707.2	8.4537e-08
707.4	8.5758e-08
707.6	8.6996e-08
707.8	8.8252e-08
708.0	8.9527e-08
708.2	9.082e-08
708.4	9.2131e-08
708.6	9.3462e-08
708.8	9.4812e-08
709.0	9.6181e-08
709.2	9.757e-08
709.4	9.8979e-08
709.6	1.0041e-07
709.8	1.0186e-07
710.0	1.0333e-07
710.2	1.0482e-07
710.4	1.0634e-07
710.6	1.0729e-07
710.8	1.0795e-07
711.0	1.0862e-07
711.2	1.0929e-07
711.4	1.0996e-07
711.6	1.1064e-07
711.8	1.1132e-07
712.0	1.1201e-07
712.2	1.127e-07
712.4	1.1339e-07
712.6	1.1409e-07
712.8	1.1479e-07
713.0	1.155e-07
713.2	1.1621e-07
713.4	1.1693e-07
713.6	1.1765e-07
713.8	1.1838e-07
714.0	1.1911e-07
714.2	1.198e-07
714.4	1.2043e-07
714.6	1.2108e-07
714.8	1.2172e-07
715.0	1.2237e-07
715.2	1.2302e-07
715.4	1.2367e-07
715.6	1.2433e-07
715.8	1.25e-07
716.0	1.2566e-07
716.2	1.2633e-07
716.4	1.27e-07
716.6	1.2768e-07
716.8	1.2836e-07
717.0	1.2904e-07
717.2	1.2973e-07
717.4	1.3042e-07
717.6	1.3111e-07
717.8	1.3176e-07
718.0	1.3221e-07
718.2	1.3266e-07
718.4	1.3312e-07
718.6	1.3357e-07
718.8	1.3403e-07
719.0	1.3449e-07
719.2	1.3495e-07
719.4	1.3542e-07
719.6	1.3588e-07
719.8	1.3635e-07
720.0	1.3681e-07
720.2	1.3728e-07
720.4	1.3775e-07
720.6	1.3823e-07
720.8	1.387e-07
721.0	1.3918e-07
721.2	1.3965e-07
721.4	1.4007e-07
721.6	1.382e-07
721.8	1.3636e-07
722.0	1.3454e-07
722.2	1.3274e-07
722.4	1.3097e-07
722.6	1.2922e-07
722.8	1.2749e-07
723.0	1.2579e-07
723.2	1.2411e-07
723.4	1.2245e-07
723.6	1.2082e-07
723.8	1.192e-07
724.0	1.1761e-07
724.2	1.1604e-07
724.4	1.1449e-07
724.6	1.1296e-07
724.8	1.1145e-07
725.0	1.0996e-07
725.2	1.085e-07
725.4	1.0705e-07
725.6	1.0562e-07
725.8	1.0421e-07
726.0	1.0282e-07
726.2	1.0144e-07
726.4	1.0009e-07
726.6	9.4598e-08
726.8	8.9143e-08
727.0	8.4003e-08
727.2	7.9159e-08
727.4	7.4595e-08
727.6	7.0293e-08
727.8	6.624e-08
728.0	6.242e-08
728.2	5.8821e-08
728.4	5.5429e-08
728.6	5.2233e-08
728.8	4.9221e-08
729.0	4.6383e-08
729.2	4.3708e-08
729.4	4.1188e-08
729.6	3.8813e-08
729.8	3.6575e-08
730.0	3.4466e-08
730.2	3.2478e-08
730.4	3.0606e-08
730.6	2.8841e-08
730.8	2.7178e-08
731.0	2.561e-08
731.2	2.4134e-08
731.4	2.2742e-08
731.6	2.21e-08
731.8	2.2035e-08
732.0	2.197e-08
732.2	2.1906e-08
732.4	2.1841e-08
732.6	2.1777e-08
732.8	2.1713e-08
733.0	2.1649e-08
733.2	2.1585e-08
733.4	2.1522e-08
733.6	2.1458e-08
733.8	2.1395e-08
734.0	2.1332e-08
734.2	2.1269e-08
734.4	2.1207e-08
734.6	2.1144e-08
734.8	2.1082e-08
735.0	2.102e-08
735.2	2.0958e-08
735.4	2.0896e-08
735.6	2.0835e-08
735.8	2.0773e-08
736.0	2.0712e-08
736.2	2.0651e-08
736.4	2.0591e-08
736.6	2.0695e-08
736.8	2.1658e-08
737.0	2.2666e-08
737.2	2.3721e-08
737.4	2.4824e-08
737.6	2.598e-08
737.8	2.7189e-08
738.0	2.8454e-08
738.2	2.9778e-08
738.4	3.1164e-08
738.6	3.2614e-08
738.8	3.4132e-08
739.0	3.5721e-08
739.2	3.7383e-08
739.4	3.9123e-08
739.6	3.9091e-08
739.8	3.8847e-08
740.0	3.8605e-08
740.2	3.8364e-08
740.4	3.8125e-08
740.6	3.7887e-08
740.8	3.7651e-08
741.0	3.7416e-08
741.2	3.7182e-08
741.4	3.695e-08
741.6	3.672e-08
741.8	3.6491e-08
742.0	3.6263e-08
742.2	3.6037e-08
742.4	3.5812e-08
742.6	3.5589e-08
742.8	3.5367e-08
743.0	3.5263e-08
743.2	3.5268e-08
743.4	3.5274e-08
743.6	3.5279e-08
743.8	3.5285e-08
744.0	3.529e-08
744.2	3.5296e-08
744.4	3.5301e-08
744.6	3.5307e-08
744.8	3.5312e-08
745.0	3.5318e-08
745.2	3.5323e-08
745.4	3.5329e-08
745.6	3.5334e-08
745.8	3.534e-08
746.0	3.5346e-08
746.2	3.5351e-08
746.4	3.5357e-08
746.6	3.5362e-08
746.8	3.5368e-08
747.0	3.5373e-08
747.2	3.5379e-08
747.4	3.5384e-08
747.6	3.539e-08
747.8	3.5397e-08
748.0	3.5482e-08
748.2	3.5566e-08
748.4	3.5651e-08
748.6	3.5737e-08
748.8	3.5822e-08
749.0	3.5908e-08
749.2	3.5993e-08
749.4	3.6079e-08
749.6	3.6166e-08
749.8	3.6252e-08
750.0	3.6339e-08
750.2	3.6425e-08
750.4	3.6512e-08
750.6	3.66e-08
750.8	3.6687e-08
751.0	3.6775e-08
751.2	3.6863e-08
751.4	3.6951e-08
751.6	3.7039e-08
751.8	3.7128e-08
752.0	3.7216e-08
752.2	3.7305e-08
752.4	3.7394e-08
752.6	3.7484e-08
752.8	3.7502e-08
753.0	3.7461e-08
753.2	3.7419e-08
753.4	3.7378e-08
753.6	3.7336e-08
753.8	3.7295e-08
754.0	3.7254e-08
754.2	3.7212e-08
754.4	3.7171e-08
754.6	3.713e-08
754.8	3.7089e-08
755.0	3.7048e-08
755.2	3.7006e-08
755.4	3.6965e-08
755.6	3.6924e-08
755.8	3.6884e-08
756.0	3.6843e-08
756.2	3.6802e-08
756.4	3.6761e-08
756.6	3.672e-08
756.8	3.668e-08
757.0	3.6639e-08
757.2	3.6598e-08
757.4	3.6558e-08
757.6	3.6511e-08
757.8	3.6229e-08
758.0	3.5948e-08
758.2	3.567e-08
758.4	3.5394e-08
758.6	3.512e-08
758.8	3.4848e-08
759.0	3.4578e-08
759.2	3.4311e-08
759.4	3.4045e-08
759.6	3.3782e-08
759.8	3.352e-08
760.0	3.3261e-08
760.2	3.3003e-08
760.4	3.2748e-08
760.6	3.2495e-08
760.8	3.2243e-08
761.0	3.1994e-08
761.2	3.1746e-08
761.4	3.15e-08
761.6	3.1256e-08
761.8	3.1015e-08
762.0	3.0774e-08
762.2	3.0536e-08
762.4	3.03e-08
762.6	3.056e-08
762.8	3.13e-08
763.0	3.2058e-08
763.2	3.2834e-08
763.4	3.3629e-08
763.6	3.4444e-08
763.8	3.5278e-08
764.0	3.6132e-08
764.2	3.7007e-08
764.4	3.7903e-08
764.6	3.882e-08
764.8	3.976e-08
765.0	4.0723e-08
765.2	4.1709e-08
765.4	4.2719e-08
765.6	4.3753e-08
765.8	4.4813e-08
766.0	4.5898e-08
766.2	4.7009e-08
766.4	4.8147e-08
766.6	4.9313e-08
766.8	5.0507e-08
767.0	5.173e-08
767.2	5.2983e-08
767.4	5.4252e-08
767.6	5.4648e-08
767.8	5.5047e-08
768.0	5.5449e-08
768.2	5.5854e-08
768.4	5.6261e-08
768.6	5.6672e-08
768.8	5.7086e-08
769.0	5.7502e-08
769.2	5.7922e-08
769.4	5.8345e-08
769.6	5.8771e-08
769.8	5.92e-08
770.0	5.9632e-08
770.2	6.0067e-08
770.4	6.0506e-08
770.6	6.0947e-08
770.8	6.1392e-08
771.0	6.184e-08
771.2	6.2292e-08
771.4	6.2747e-08
771.6	6.3205e-08
771.8	6.3666e-08
772.0	6.4131e-08
772.2	6.4599e-08
772.4	6.5595e-08
772.6	6.7123e-08
772.8	6.8686e-08
773.0	7.0286e-08
773.2	7.1923e-08
773.4	7.3598e-08
773.6	7.5312e-08
773.8	7.7066e-08
774.0	7.8861e-08
774.2	8.0698e-08
774.4	8.2577e-08
774.6	8.45e-08
774.8	8.6468e-08
775.0	8.8482e-08
775.2	9.0543e-08
775.4	9.2652e-08
775.6	9.481e-08
775.8	9.7018e-08
776.0	9.9277e-08
776.2	1.0155e-07
776.4	1.0131e-07
776.6	1.0106e-07
776.8	1.0082e-07
777.0	1.0057e-07
777.2	1.0033e-07
777.4	1.0009e-07
777.6	9.9845e-08
777.8	9.9604e-08
778.0	9.9363e-08
778.2	9.9123e-08
778.4	9.8883e-08
778.6	9.8644e-08
778.8	9.8406e-08
779.0	9.8168e-08
779.2	9.793e-08
779.4	9.7694e-08
779.6	9.7458e-08
779.8	9.7222e-08
780.0	9.6987e-08
780.2	9.8502e-08
780.4	1.0171e-07
780.6	1.0502e-07
780.8	1.0844e-07
781.0	1.1197e-07
781.2	1.1561e-07
781.4	1.1937e-07
781.6	1.2326e-07
781.8	1.2727e-07
782.0	1.3141e-07
782.2	1.3569e-07
782.4	1.4011e-07
782.6	1.4467e-07
782.8	1.4938e-07
783.0	1.5424e-07
783.2	1.5926e-07
783.4	1.6445e-07
783.6	1.6328e-07
783.8	1.3791e-07
784.0	1.1649e-07
784.2	9.8395e-08
784.4	8.311e-08
784.6	7.02e-08
784.8	5.9295e-08
785.0	5.0085e-08
785.2	4.8393e-08
785.4	6.7257e-08
785.6	9.3475e-08
785.8	1.0e-07
786.0	1.0e-07
786.2	7.955e-08
786.4	3.8917e-08
786.6	4.6827e-08
786.8	7.3168e-08
787.0	1.0e-07
787.2	1.0e-07
787.4	1.0e-07
787.6	3.1669e-08
787.8	1.3199e-08
788.0	2.7192e-08
788.2	5.602e-08
788.4	7.5226e-08
788.6	8.8896e-08
788.8	1.0183e-07
789.0	1.083e-07
789.2	1.3469e-07
789.4	1.7649e-07
789.6	2.16e-07
789.8	2.208e-07
790.0	2.2572e-07
790.2	2.4607e-07
790.4	2.8827e-07
790.6	3.9817e-07
790.8	5.4995e-07
791.0	6.8712e-07
791.2	8.3455e-07
791.4	1.0573e-06
791.6	1.475e-06
791.8	1.9529e-06
792.0	2.5422e-06
792.2	3.2983e-06
792.4	4.2421e-06
792.6	5.456e-06
792.8	7.3451e-06
793.0	9.9359e-06
793.2	1.3217e-05
793.4	1.758e-05
793.6	2.3663e-05
793.8	3.1951e-05
794.0	4.3858e-05
794.2	6.1333e-05
794.4	8.3753e-05
794.6	1.172e-04
794.8	1.6344e-04
795.0	2.2961e-04
795.2	3.2595e-04
795.4	4.6329e-04
795.6	6.6665e-04
795.8	9.6653e-04
796.0	0.00141
796.2	0.00209
796.4	0.00315
796.6	0.00478
796.8	0.00674
797.0	0.01039
797.2	0.01626
797.4	0.02573
797.6	0.04127
797.8	0.06651
798.0	0.10797
798.2	0.16778
798.4	0.26146
798.6	0.39111
798.8	0.54507
799.0	0.69617
799.2	0.81923
799.4	0.89993
799.6	0.9454
799.8	0.96707
800.0	0.9757
800.2	0.97981
800.4	0.98067
800.6	0.98107
800.8	0.98144
801.0	0.98205
801.2	0.98291
801.4	0.98325
801.6	0.98311
801.8	0.98362
802.0	0.98427
802.2	0.98468
802.4	0.98423
802.6	0.98424
802.8	0.98422
803.0	0.98334
803.2	0.98162
803.4	0.98103
803.6	0.98038
803.8	0.97927
804.0	0.97919
804.2	0.97872
804.4	0.97757
804.6	0.97707
804.8	0.97594
805.0	0.97482
805.2	0.97415
805.4	0.97419
805.6	0.97338
805.8	0.97316
806.0	0.97317
806.2	0.97377
806.4	0.9737
806.6	0.97314
806.8	0.97393
807.0	0.97563
807.2	0.97533
807.4	0.97649
807.6	0.97766
807.8	0.97746
808.0	0.97879
808.2	0.98036
808.4	0.98103
808.6	0.98208
808.8	0.98229
809.0	0.98252
809.2	0.98389
809.4	0.98436
809.6	0.98433
809.8	0.98428
810.0	0.98545
810.2	0.98537
810.4	0.98525
810.6	0.98529
810.8	0.98483
811.0	0.98406
811.2	0.98394
811.4	0.98364
811.6	0.98302
811.8	0.98251
812.0	0.98123
812.2	0.98058
812.4	0.98032
812.6	0.97967
812.8	0.97866
813.0	0.97792
813.2	0.97744
813.4	0.97624
813.6	0.97579
813.8	0.97669
814.0	0.97659
814.2	0.97706
814.4	0.97718
814.6	0.97717
814.8	0.97818
815.0	0.97898
815.2	0.9787
815.4	0.98071
815.6	0.98177
815.8	0.9818
816.0	0.98312
816.2	0.98351
816.4	0.98359
816.6	0.98411
816.8	0.98272
817.0	0.97833
817.2	0.96964
817.4	0.95207
817.6	0.92012
817.8	0.86503
818.0	0.78312
818.2	0.67156
818.4	0.54291
818.6	0.41154
818.8	0.29537
819.0	0.22968
819.2	0.15457
819.4	0.102
819.6	0.06691
819.8	0.04399
820.0	0.02899
820.2	0.0196
820.4	0.0132
820.6	0.00888
820.8	0.00603
821.0	0.00415
821.2	0.00287
821.4	0.002
821.6	0.00131
821.8	9.2349e-04
822.0	6.5913e-04
822.2	4.7232e-04
822.4	3.4252e-04
822.6	2.5088e-04
822.8	1.8393e-04
823.0	1.4291e-04
823.2	1.0643e-04
823.4	7.9253e-05
823.6	5.9402e-05
823.8	4.4598e-05
824.0	3.3448e-05
824.2	2.5032e-05
824.4	1.9075e-05
824.6	1.4628e-05
824.8	1.1282e-05
825.0	8.8381e-06
825.2	6.9235e-06
825.4	4.8522e-06
825.6	3.4694e-06
825.8	2.8361e-06
826.0	2.3184e-06
826.2	1.8898e-06
826.4	1.5393e-06
826.6	8.8624e-07
826.8	2.4823e-07
827.0	1.9589e-07
827.2	2.2246e-07
827.4	2.4942e-07
827.6	2.7042e-07
827.8	2.9319e-07
828.0	1.6835e-07
828.2	1.0e-07
828.4	1.0e-07
828.6	1.0e-07
828.8	8.1936e-08
829.0	6.3773e-08
829.2	6.1291e-08
829.4	9.0392e-08
829.6	1.0e-07
829.8	1.0e-07
830.0	1.0e-07
830.2	1.0e-07
830.4	1.0e-07
830.6	1.0e-07
830.8	9.376e-08
831.0	7.2827e-08
831.2	5.6568e-08
831.4	5.1588e-08
831.6	4.9162e-08
831.8	7.2195e-08
832.0	1.0e-07
832.2	1.0e-07
832.4	8.6965e-08
832.6	5.3275e-08
832.8	3.2636e-08
833.0	3.6597e-08
833.2	4.7074e-08
833.4	6.0551e-08
833.6	7.7886e-08
833.8	1.0018e-07
834.0	1.2887e-07
834.2	1.6576e-07
834.4	2.1322e-07
834.6	2.1905e-07
834.8	2.1386e-07
835.0	2.0878e-07
835.2	2.0383e-07
835.4	1.99e-07
835.6	1.9428e-07
835.8	1.8967e-07
836.0	1.8517e-07
836.2	1.8078e-07
836.4	1.7649e-07
836.6	1.723e-07
836.8	1.6822e-07
837.0	1.6423e-07
837.2	1.6033e-07
837.4	1.5653e-07
837.6	1.5281e-07
837.8	1.4919e-07
838.0	1.4706e-07
838.2	1.4612e-07
838.4	1.4518e-07
838.6	1.4424e-07
838.8	1.4332e-07
839.0	1.424e-07
839.2	1.4148e-07
839.4	1.4057e-07
839.6	1.3967e-07
839.8	1.3877e-07
840.0	1.3788e-07
840.2	1.3699e-07
840.4	1.3611e-07
840.6	1.3523e-07
840.8	1.3436e-07
841.0	1.335e-07
841.2	1.3264e-07
841.4	1.3179e-07
841.6	1.3094e-07
841.8	1.301e-07
842.0	1.2926e-07
842.2	1.2843e-07
842.4	1.276e-07
842.6	1.2678e-07
842.8	1.259e-07
843.0	1.23e-07
843.2	1.2015e-07
843.4	1.1738e-07
843.6	1.1466e-07
843.8	1.1201e-07
844.0	1.0943e-07
844.2	1.069e-07
844.4	1.0443e-07
844.6	1.0201e-07
844.8	9.9655e-08
845.0	9.7352e-08
845.2	9.5102e-08
845.4	9.2904e-08
845.6	9.0757e-08
845.8	8.866e-08
846.0	8.6611e-08
846.2	8.461e-08
846.4	8.2654e-08
846.6	8.0744e-08
846.8	7.8878e-08
847.0	7.7055e-08
847.2	7.5274e-08
847.4	7.3535e-08
847.6	7.1835e-08
847.8	7.09e-08
848.0	7.0672e-08
848.2	7.0444e-08
848.4	7.0216e-08
848.6	6.999e-08
848.8	6.9764e-08
849.0	6.9539e-08
849.2	6.9315e-08
849.4	6.9091e-08
849.6	6.8869e-08
849.8	6.8646e-08
850.0	6.8425e-08
850.2	6.8204e-08
850.4	6.7984e-08
850.6	6.7765e-08
850.8	6.7547e-08
851.0	6.7329e-08
851.2	6.7112e-08
851.4	6.6895e-08
851.6	6.6679e-08
851.8	6.6464e-08
852.0	6.625e-08
852.2	6.6036e-08
852.4	6.5823e-08
852.6	6.5599e-08
852.8	6.4232e-08
853.0	6.2894e-08
853.2	6.1583e-08
853.4	6.0299e-08
853.6	5.9043e-08
853.8	5.7812e-08
854.0	5.6607e-08
854.2	5.5428e-08
854.4	5.4272e-08
854.6	5.3141e-08
854.8	5.2034e-08
855.0	5.0949e-08
855.2	4.9888e-08
855.4	4.8848e-08
855.6	4.783e-08
855.8	4.6833e-08
856.0	4.5857e-08
856.2	4.4901e-08
856.4	4.3965e-08
856.6	4.3049e-08
856.8	4.2152e-08
857.0	4.1273e-08
857.2	4.0413e-08
857.4	3.9571e-08
857.6	3.9097e-08
857.8	3.8965e-08
858.0	3.8833e-08
858.2	3.8702e-08
858.4	3.8571e-08
858.6	3.8441e-08
858.8	3.8311e-08
859.0	3.8181e-08
859.2	3.8052e-08
859.4	3.7924e-08
859.6	3.7796e-08
859.8	3.7668e-08
860.0	3.7541e-08
860.2	3.7414e-08
860.4	3.7287e-08
860.6	3.7161e-08
860.8	3.7036e-08
861.0	3.691e-08
861.2	3.6786e-08
861.4	3.6661e-08
861.6	3.6537e-08
861.8	3.6414e-08
862.0	3.6291e-08
862.2	3.6168e-08
862.4	3.6027e-08
862.6	3.5001e-08
862.8	3.4003e-08
863.0	3.3034e-08
863.2	3.2093e-08
863.4	3.1178e-08
863.6	3.029e-08
863.8	2.9427e-08
864.0	2.8588e-08
864.2	2.7773e-08
864.4	2.6982e-08
864.6	2.6213e-08
864.8	2.5466e-08
865.0	2.474e-08
865.2	2.4035e-08
865.4	2.335e-08
865.6	2.2685e-08
865.8	2.2039e-08
866.0	2.1411e-08
866.2	2.08e-08
866.4	2.0208e-08
866.6	1.9632e-08
866.8	1.9072e-08
867.0	1.8529e-08
867.2	1.8001e-08
867.4	1.7836e-08
867.6	1.7985e-08
867.8	1.8134e-08
868.0	1.8285e-08
868.2	1.8437e-08
868.4	1.8591e-08
868.6	1.8746e-08
868.8	1.8902e-08
869.0	1.9059e-08
869.2	1.9218e-08
869.4	1.9378e-08
869.6	1.9539e-08
869.8	1.9702e-08
870.0	1.9866e-08
870.2	2.0031e-08
870.4	2.0198e-08
870.6	2.0366e-08
870.8	2.0536e-08
871.0	2.0706e-08
871.2	2.0879e-08
871.4	2.1053e-08
871.6	2.1228e-08
871.8	2.1405e-08
872.0	2.1583e-08
872.2	2.1786e-08
872.4	2.3185e-08
872.6	2.4673e-08
872.8	2.6257e-08
873.0	2.7943e-08
873.2	2.9737e-08
873.4	3.1646e-08
873.6	3.3678e-08
873.8	3.584e-08
874.0	3.8141e-08
874.2	4.059e-08
874.4	4.3196e-08
874.6	4.5969e-08
874.8	4.8921e-08
875.0	5.2061e-08
875.2	5.5404e-08
875.4	5.8961e-08
875.6	6.2746e-08
875.8	6.6775e-08
876.0	7.1062e-08
876.2	7.5624e-08
876.4	8.048e-08
876.6	8.5647e-08
876.8	9.1145e-08
877.0	9.6997e-08
877.2	9.6636e-08
877.4	9.0365e-08
877.6	8.4501e-08
877.8	7.9018e-08
878.0	7.389e-08
878.2	6.9095e-08
878.4	6.4612e-08
878.6	6.0419e-08
878.8	5.6498e-08
879.0	5.2832e-08
879.2	4.9404e-08
879.4	4.6198e-08
879.6	4.32e-08
879.8	4.0397e-08
880.0	3.7775e-08
880.2	3.5324e-08
880.4	3.3032e-08
880.6	3.0888e-08
880.8	2.8884e-08
881.0	2.7009e-08
881.2	2.5257e-08
881.4	2.3618e-08
881.6	2.2085e-08
881.8	2.0652e-08
882.0	1.9338e-08
882.2	1.9756e-08
882.4	2.0184e-08
882.6	2.0622e-08
882.8	2.1068e-08
883.0	2.1525e-08
883.2	2.1991e-08
883.4	2.2467e-08
883.6	2.2954e-08
883.8	2.3451e-08
884.0	2.3959e-08
884.2	2.4478e-08
884.4	2.5008e-08
884.6	2.555e-08
884.8	2.6103e-08
885.0	2.6668e-08
885.2	2.7246e-08
885.4	2.7836e-08
885.6	2.8439e-08
885.8	2.9055e-08
886.0	2.9684e-08
886.2	3.0327e-08
886.4	3.0984e-08
886.6	3.1655e-08
886.8	3.2182e-08
887.0	3.1652e-08
887.2	3.1131e-08
887.4	3.0618e-08
887.6	3.0114e-08
887.8	2.9618e-08
888.0	2.913e-08
888.2	2.8651e-08
888.4	2.8179e-08
888.6	2.7715e-08
888.8	2.7259e-08
889.0	2.681e-08
889.2	2.6369e-08
889.4	2.5934e-08
889.6	2.5507e-08
889.8	2.5087e-08
890.0	2.4674e-08
890.2	2.4268e-08
890.4	2.4615e-08
890.6	2.5025e-08
890.8	2.5442e-08
891.0	2.5866e-08
891.2	2.6297e-08
891.4	2.6735e-08
891.6	2.718e-08
891.8	2.7632e-08
892.0	2.8093e-08
892.2	2.8561e-08
892.4	2.9036e-08
892.6	2.952e-08
892.8	3.0012e-08
893.0	3.0511e-08
893.2	3.102e-08
893.4	3.1536e-08
893.6	3.319e-08
893.8	3.7301e-08
894.0	4.1921e-08
894.2	4.7114e-08
894.4	5.295e-08
894.6	5.9508e-08
894.8	6.6879e-08
895.0	7.5163e-08
895.2	8.4473e-08
895.4	9.4936e-08
895.6	1.0e-07
895.8	1.0e-07
896.0	1.0e-07
896.2	1.0e-07
896.4	1.0e-07
896.6	1.0e-07
896.8	1.0e-07
897.0	1.0e-07
897.2	1.0e-07
897.4	1.0e-07
897.6	1.0e-07
897.8	1.0e-07
898.0	1.0e-07
898.2	1.0e-07
898.4	1.0e-07
898.6	1.0e-07
898.8	1.0e-07
899.0	1.0e-07
899.2	1.0e-07
899.4	1.0e-07
899.6	1.0e-07
899.8	1.0e-07
900.0	1.0e-07
900.2	1.0e-07
900.4	1.0e-07
900.6	1.0e-07
900.8	1.0e-07
901.0	1.0e-07
901.2	1.0e-07
901.4	1.0e-07
901.6	1.0e-07
901.8	1.0e-07
902.0	1.0e-07
902.2	1.0e-07
902.4	1.0e-07
902.6	1.0e-07
902.8	1.0e-07
903.0	1.0e-07
903.2	1.0e-07
903.4	1.0e-07
903.6	1.0e-07
903.8	1.0e-07
904.0	1.0e-07
904.2	1.0e-07
904.4	1.0e-07
904.6	1.0e-07
904.8	1.0e-07
905.0	1.0e-07
905.2	1.0e-07
905.4	1.0e-07
905.6	1.0e-07
905.8	1.0e-07
906.0	1.0e-07
906.2	1.0e-07
906.4	1.0e-07
906.6	1.0e-07
906.8	1.0e-07
907.0	1.0e-07
907.2	1.0e-07
907.4	1.0e-07
907.6	1.0e-07
907.8	1.0e-07
908.0	1.0e-07
908.2	1.0e-07
908.4	1.0e-07
908.6	1.0e-07
908.8	1.0e-07
909.0	1.0e-07
909.2	1.0e-07
909.4	1.0e-07
909.6	1.0e-07
909.8	1.0e-07
910.0	1.0e-07
910.2	1.0e-07
910.4	1.0e-07
910.6	1.0e-07
910.8	1.0e-07
911.0	1.0e-07
911.2	1.0e-07
911.4	1.0e-07
911.6	1.0e-07
911.8	1.0e-07
912.0	1.0e-07
912.2	1.0e-07
912.4	1.0e-07
912.6	1.0e-07
912.8	1.0e-07
913.0	1.0e-07
913.2	1.0e-07
913.4	1.0e-07
913.6	1.0e-07
913.8	1.0e-07
914.0	1.0e-07
914.2	1.0e-07
914.4	1.0e-07
914.6	1.0e-07
914.8	1.0e-07
915.0	1.0e-07
915.2	1.0e-07
915.4	1.0e-07
915.6	1.0e-07
915.8	1.0e-07
916.0	1.0e-07
916.2	1.0e-07
916.4	1.0e-07
916.6	1.0e-07
916.8	1.0e-07
917.0	1.0e-07
917.2	1.0e-07
917.4	1.0e-07
917.6	1.0e-07
917.8	1.0e-07
918.0	1.0e-07
918.2	1.0e-07
918.4	1.0e-07
918.6	1.0e-07
918.8	1.0e-07
919.0	1.0e-07
919.2	1.0e-07
919.4	1.0e-07
919.6	1.0e-07
919.8	1.0e-07
920.0	1.0e-07
920.2	1.0e-07
920.4	1.0e-07
920.6	1.0e-07
920.8	1.0e-07
921.0	1.0e-07
921.2	1.0e-07
921.4	1.0e-07
921.6	1.0e-07
921.8	1.0e-07
922.0	1.0e-07
922.2	1.0e-07
922.4	1.0e-07
922.6	1.0e-07
922.8	1.0e-07
923.0	1.0e-07
923.2	1.0e-07
923.4	1.0e-07
923.6	1.0e-07
923.8	1.0e-07
924.0	1.0e-07
924.2	1.0e-07
924.4	1.0e-07
924.6	1.0e-07
924.8	1.0e-07
925.0	1.0e-07
925.2	1.0e-07
925.4	1.0e-07
925.6	1.0e-07
925.8	1.0e-07
926.0	1.0e-07
926.2	1.0e-07
926.4	1.0e-07
926.6	1.0e-07
926.8	1.0e-07
927.0	1.0e-07
927.2	1.0e-07
927.4	1.0e-07
927.6	1.0e-07
927.8	1.0e-07
928.0	1.0e-07
928.2	1.0e-07
928.4	1.0e-07
928.6	1.0e-07
928.8	1.0e-07
929.0	1.0e-07
929.2	1.0e-07
929.4	1.0e-07
929.6	1.0e-07
929.8	1.0e-07
930.0	1.0e-07
930.2	1.0e-07
930.4	1.0e-07
930.6	1.0e-07
930.8	1.0e-07
931.0	1.0e-07
931.2	1.0e-07
931.4	1.0e-07
931.6	1.0e-07
931.8	1.0e-07
932.0	1.0e-07
932.2	1.0e-07
932.4	1.0e-07
932.6	1.0e-07
932.8	1.0e-07
933.0	1.0e-07
933.2	1.0e-07
933.4	1.0e-07
933.6	1.0e-07
933.8	1.0e-07
934.0	1.0e-07
934.2	1.0e-07
934.4	1.0e-07
934.6	1.0e-07
934.8	1.0e-07
935.0	1.0e-07
935.2	1.0e-07
935.4	1.0e-07
935.6	1.0e-07
935.8	1.0e-07
936.0	1.0e-07
936.2	1.0e-07
936.4	1.0e-07
936.6	1.0e-07
936.8	1.0e-07
937.0	1.0e-07
937.2	1.0e-07
937.4	1.0e-07
937.6	1.0e-07
937.8	1.0e-07
938.0	1.0e-07
938.2	1.0e-07
938.4	1.0e-07
938.6	1.0e-07
938.8	1.0e-07
939.0	1.0e-07
939.2	1.0e-07
939.4	1.0e-07
939.6	1.0e-07
939.8	1.0e-07
940.0	1.0e-07
940.2	1.0e-07
940.4	1.0e-07
940.6	1.0e-07
940.8	1.0e-07
941.0	1.0e-07
941.2	1.0e-07
941.4	1.0e-07
941.6	1.0e-07
941.8	1.0e-07
942.0	1.0e-07
942.2	1.0e-07
942.4	1.0e-07
942.6	1.0e-07
942.8	1.0e-07
943.0	1.0e-07
943.2	1.0e-07
943.4	1.0e-07
943.6	1.0e-07
943.8	1.0e-07
944.0	1.0e-07
944.2	1.0e-07
944.4	1.0e-07
944.6	1.0e-07
944.8	1.0e-07
945.0	1.0e-07
945.2	1.0e-07
945.4	1.0e-07
945.6	1.0e-07
945.8	1.0e-07
946.0	1.0e-07
946.2	1.0e-07
946.4	1.0e-07
946.6	1.0e-07
946.8	1.0e-07
947.0	1.0e-07
947.2	1.0e-07
947.4	1.0e-07
947.6	1.0e-07
947.8	1.0e-07
948.0	1.0e-07
948.2	1.0e-07
948.4	1.0e-07
948.6	1.0e-07
948.8	1.0e-07
949.0	1.0e-07
949.2	1.0e-07
949.4	1.0e-07
949.6	1.0e-07
949.8	1.0e-07
950.0	1.0e-07
950.2	1.0e-07
950.4	1.0e-07
950.6	1.0e-07
950.8	1.0e-07
951.0	1.0e-07
951.2	1.0e-07
951.4	1.0e-07
951.6	1.0e-07
951.8	1.0e-07
952.0	1.0e-07
952.2	1.0e-07
952.4	1.0e-07
952.6	1.0e-07
952.8	1.0e-07
953.0	1.0e-07
953.2	1.0e-07
953.4	1.0e-07
953.6	1.0e-07
953.8	1.0e-07
954.0	1.0e-07
954.2	1.0e-07
954.4	1.0e-07
954.6	1.0e-07
954.8	1.0e-07
955.0	1.0e-07
955.2	1.0e-07
955.4	1.0e-07
955.6	1.0e-07
955.8	1.0e-07
956.0	1.0e-07
956.2	1.0e-07
956.4	1.0e-07
956.6	1.0e-07
956.8	1.0e-07
957.0	1.0e-07
957.2	1.0e-07
957.4	1.0e-07
957.6	1.0e-07
957.8	1.0e-07
958.0	1.0e-07
958.2	1.0e-07
958.4	1.0e-07
958.6	1.0e-07
958.8	1.0e-07
959.0	1.0e-07
959.2	1.0e-07
959.4	1.0e-07
959.6	1.0e-07
959.8	1.0e-07
960.0	1.0e-07
960.2	1.0e-07
960.4	1.0e-07
960.6	1.0e-07
960.8	1.0e-07
961.0	1.0e-07
961.2	1.0e-07
961.4	1.0e-07
961.6	1.0e-07
961.8	1.0e-07
962.0	1.0e-07
962.2	1.0e-07
962.4	1.0e-07
962.6	1.0e-07
962.8	1.0e-07
963.0	1.0e-07
963.2	1.0e-07
963.4	1.0e-07
963.6	1.0e-07
963.8	1.0e-07
964.0	1.0e-07
964.2	1.0e-07
964.4	1.0e-07
964.6	1.0e-07
964.8	1.0e-07
965.0	1.0e-07
965.2	1.0e-07
965.4	1.0e-07
965.6	1.0e-07
965.8	1.0e-07
966.0	1.0e-07
966.2	1.0e-07
966.4	1.0e-07
966.6	1.0e-07
966.8	1.0e-07
967.0	1.0e-07
967.2	1.0e-07
967.4	1.0e-07
967.6	1.0e-07
967.8	1.0e-07
968.0	1.0e-07
968.2	1.0e-07
968.4	1.0e-07
968.6	1.0e-07
968.8	1.0e-07
969.0	1.0e-07
969.2	1.0e-07
969.4	1.0e-07
969.6	1.0e-07
969.8	1.0e-07
970.0	1.0e-07
970.2	1.0e-07
970.4	1.0e-07
970.6	8.1685e-08
970.8	6.2146e-08
971.0	4.728e-08
971.2	3.5971e-08
971.4	2.7367e-08
971.6	2.0821e-08
971.8	1.584e-08
972.0	1.2051e-08
972.2	1.3969e-08
972.4	1.6191e-08
972.6	1.8768e-08
972.8	2.1754e-08
973.0	2.5216e-08
973.2	2.9228e-08
973.4	3.3878e-08
973.6	3.9269e-08
973.8	4.5517e-08
974.0	5.276e-08
974.2	6.1155e-08
974.4	7.0886e-08
974.6	8.058e-08
974.8	8.7016e-08
975.0	9.3966e-08
975.2	1.0147e-07
975.4	1.0957e-07
975.6	1.1833e-07
975.8	1.2778e-07
976.0	1.3798e-07
976.2	1.49e-07
976.4	1.609e-07
976.6	1.7375e-07
976.8	1.8763e-07
977.0	2.0262e-07
977.2	2.188e-07
977.4	2.3628e-07
977.6	2.5515e-07
977.8	2.7553e-07
978.0	2.9753e-07
978.2	3.1167e-07
978.4	3.0693e-07
978.6	3.0227e-07
978.8	2.9767e-07
979.0	2.9315e-07
979.2	2.8869e-07
979.4	2.843e-07
979.6	2.7998e-07
979.8	2.7572e-07
980.0	2.7153e-07
980.2	2.674e-07
980.4	2.6334e-07
980.6	2.5933e-07
980.8	2.5539e-07
981.0	2.5151e-07
981.2	2.4769e-07
981.4	2.4392e-07
981.6	2.4021e-07
981.8	2.3349e-07
982.0	2.2247e-07
982.2	2.1197e-07
982.4	2.0196e-07
982.6	1.9243e-07
982.8	1.8334e-07
983.0	1.7469e-07
983.2	1.6644e-07
983.4	1.5858e-07
983.6	1.511e-07
983.8	1.4396e-07
984.0	1.3717e-07
984.2	1.3069e-07
984.4	1.2452e-07
984.6	1.1864e-07
984.8	1.1304e-07
985.0	1.0771e-07
985.2	1.0262e-07
985.4	1.0e-07
985.6	1.0e-07
985.8	1.0e-07
986.0	1.0e-07
986.2	1.0e-07
986.4	1.0e-07
986.6	1.0e-07
986.8	1.0e-07
987.0	1.0e-07
987.2	1.0e-07
987.4	1.0e-07
987.6	1.0e-07
987.8	1.0e-07
988.0	1.0e-07
988.2	1.0e-07
988.4	1.0e-07
988.6	1.0e-07
988.8	1.0e-07
989.0	1.0e-07
989.2	1.0e-07
989.4	1.0e-07
989.6	1.0e-07
989.8	1.0e-07
990.0	1.0e-07
990.2	1.0e-07
990.4	1.0e-07
990.6	1.0e-07
990.8	1.0e-07
991.0	1.0e-07
991.2	1.0e-07
991.4	1.0e-07
991.6	1.0e-07
991.8	1.0e-07
992.0	1.0e-07
992.2	1.0e-07
992.4	1.0e-07
992.6	1.0e-07
992.8	1.0e-07
993.0	1.0e-07
993.2	1.0e-07
993.4	1.0e-07
993.6	1.0e-07
993.8	1.0e-07
994.0	1.0e-07
994.2	1.0e-07
994.4	1.0e-07
994.6	1.0e-07
994.8	1.0e-07
995.0	1.0e-07
995.2	1.0e-07
995.4	1.0e-07
995.6	1.0e-07
995.8	1.0e-07
996.0	1.0e-07
996.2	1.0e-07
996.4	1.0e-07
996.6	1.0e-07
996.8	1.0e-07
997.0	1.0e-07
997.2	1.0e-07
997.4	1.0e-07
997.6	1.0e-07
997.8	1.0e-07
998.0	1.0e-07
998.2	1.0e-07
998.4	1.0e-07
998.6	1.0e-07
998.8	1.0e-07
999.0	1.0e-07
999.2	1.0e-07
999.4	1.0e-07
999.6	1.0e-07
999.8	1.0e-07
1000.0	1.0e-07
1000.2	1.0e-07
1000.4	1.0e-07
1000.6	1.0e-07
1000.8	1.0e-07
1001.0	1.0e-07
1001.2	1.0e-07
1001.4	1.0e-07
1001.6	1.0e-07
1001.8	1.0e-07
1002.0	1.0e-07
1002.2	1.0e-07
1002.4	1.0e-07
1002.6	1.0e-07
1002.8	1.0e-07
1003.0	1.0e-07
1003.2	1.0e-07
1003.4	1.0e-07
1003.6	1.0e-07
1003.8	1.0e-07
1004.0	1.0e-07
1004.2	1.0e-07
1004.4	1.0e-07
1004.6	1.0e-07
1004.8	1.0e-07
1005.0	1.0e-07
1005.2	1.0e-07
1005.4	1.0e-07
1005.6	1.0e-07
1005.8	1.0e-07
1006.0	1.0e-07
1006.2	1.0e-07
1006.4	1.0e-07
1006.6	1.0e-07
1006.8	1.0e-07
1007.0	1.0e-07
1007.2	1.0e-07
1007.4	1.0e-07
1007.6	1.0e-07
1007.8	1.0e-07
1008.0	1.0e-07
1008.2	1.0e-07
1008.4	1.0e-07
1008.6	1.0e-07
1008.8	1.0e-07
1009.0	1.0e-07
1009.2	1.0e-07
1009.4	1.0e-07
1009.6	1.0e-07
1009.8	1.0e-07
1010.0	1.0e-07
1010.2	1.0e-07
1010.4	1.0e-07
1010.6	1.0e-07
1010.8	1.0e-07
1011.0	1.0e-07
1011.2	1.0e-07
1011.4	1.0e-07
1011.6	1.0e-07
1011.8	1.0e-07
1012.0	1.0e-07
1012.2	1.0e-07
1012.4	1.0e-07
1012.6	1.0e-07
1012.8	1.0e-07
1013.0	1.0e-07
1013.2	1.0e-07
1013.4	1.0e-07
1013.6	1.0e-07
1013.8	1.0e-07
1014.0	1.0e-07
1014.2	1.0e-07
1014.4	1.0e-07
1014.6	1.0e-07
1014.8	1.0e-07
1015.0	1.0e-07
1015.2	1.0e-07
1015.4	1.0e-07
1015.6	1.0e-07
1015.8	1.0e-07
1016.0	1.0e-07
1016.2	1.0e-07
1016.4	1.0e-07
1016.6	1.0e-07
1016.8	1.0e-07
1017.0	1.0e-07
1017.2	1.0e-07
1017.4	1.0e-07
1017.6	1.0e-07
1017.8	1.0e-07
1018.0	1.0e-07
1018.2	1.0e-07
1018.4	1.0e-07
1018.6	1.0e-07
1018.8	1.0e-07
1019.0	1.0e-07
1019.2	1.0e-07
1019.4	1.0e-07
1019.6	1.0e-07
1019.8	1.0e-07
1020.0	1.0e-07
1020.2	1.0e-07
1020.4	1.0e-07
1020.6	1.0e-07
1020.8	1.0e-07
1021.0	1.0e-07
1021.2	1.0e-07
1021.4	1.0e-07
1021.6	1.0e-07
1021.8	1.0e-07
1022.0	1.0e-07
1022.2	1.0e-07
1022.4	1.0e-07
1022.6	1.0e-07
1022.8	1.0e-07
1023.0	1.0e-07
1023.2	1.0e-07
1023.4	1.0e-07
1023.6	1.0e-07
1023.8	1.0e-07
1024.0	1.0e-07
1024.2	1.0e-07
1024.4	1.0e-07
1024.6	1.0e-07
1024.8	1.0e-07
1025.0	1.0e-07
1025.2	9.7432e-08
1025.4	9.4929e-08
1025.6	9.2491e-08
1025.8	9.0116e-08
1026.0	8.7801e-08
1026.2	8.6738e-08
1026.4	8.6703e-08
1026.6	8.6667e-08
1026.8	8.6632e-08
1027.0	8.6597e-08
1027.2	8.6561e-08
1027.4	8.6526e-08
1027.6	8.6491e-08
1027.8	8.6456e-08
1028.0	8.6421e-08
1028.2	8.6385e-08
1028.4	8.635e-08
1028.6	8.6315e-08
1028.8	8.628e-08
1029.0	8.6245e-08
1029.2	8.621e-08
1029.4	8.6175e-08
1029.6	8.614e-08
1029.8	8.5047e-08
1030.0	8.3423e-08
1030.2	8.1831e-08
1030.4	8.0268e-08
1030.6	7.8736e-08
1030.8	7.7233e-08
1031.0	7.5758e-08
1031.2	7.4312e-08
1031.4	7.2893e-08
1031.6	7.1502e-08
1031.8	7.0137e-08
1032.0	6.8798e-08
1032.2	6.7484e-08
1032.4	6.6196e-08
1032.6	6.4932e-08
1032.8	6.3693e-08
1033.0	6.2477e-08
1033.2	6.1284e-08
1033.4	6.2355e-08
1033.6	6.4103e-08
1033.8	6.5899e-08
1034.0	6.7747e-08
1034.2	6.9646e-08
1034.4	7.1598e-08
1034.6	7.3605e-08
1034.8	7.5668e-08
1035.0	7.7789e-08
1035.2	7.997e-08
1035.4	8.2212e-08
1035.6	8.4516e-08
1035.8	8.6885e-08
1036.0	8.9321e-08
1036.2	9.1825e-08
1036.4	9.4399e-08
1036.6	9.7045e-08
1036.8	9.9765e-08
1037.0	1.0e-07
1037.2	1.0e-07
1037.4	1.0e-07
1037.6	1.0e-07
1037.8	1.0e-07
1038.0	1.0e-07
1038.2	1.0e-07
1038.4	1.0e-07
1038.6	1.0e-07
1038.8	1.0e-07
1039.0	1.0e-07
1039.2	1.0e-07
1039.4	1.0e-07
1039.6	1.0e-07
1039.8	1.0e-07
1040.0	1.0e-07
1040.2	1.0e-07
1040.4	1.0e-07
1040.6	1.0e-07
1040.8	1.0e-07
1041.0	1.0e-07
1041.2	1.0e-07
1041.4	1.0e-07
1041.6	1.0e-07
1041.8	1.0e-07
1042.0	1.0e-07
1042.2	1.0e-07
1042.4	1.0e-07
1042.6	1.0e-07
1042.8	1.0e-07
1043.0	1.0e-07
1043.2	1.0e-07
1043.4	1.0e-07
1043.6	1.0e-07
1043.8	1.0e-07
1044.0	9.9913e-08
1044.2	9.9508e-08
1044.4	9.9106e-08
1044.6	9.8705e-08
1044.8	9.8305e-08
1045.0	9.7907e-08
1045.2	9.8272e-08
1045.4	9.8637e-08
1045.6	9.9004e-08
1045.8	9.9373e-08
1046.0	9.9742e-08
1046.2	1.0e-07
1046.4	1.0e-07
1046.6	1.0e-07
1046.8	1.0e-07
1047.0	1.0e-07
1047.2	1.0e-07
1047.4	1.0e-07
1047.6	1.0e-07
1047.8	1.0e-07
1048.0	1.0e-07
1048.2	1.0e-07
1048.4	1.0e-07
1048.6	1.0e-07
1048.8	1.0e-07
1049.0	1.0e-07
1049.2	1.0e-07
1049.4	1.0e-07
1049.6	1.0e-07
1049.8	1.0e-07
1050.0	1.0e-07
1050.2	1.0e-07
1050.4	1.0e-07
1050.6	1.0e-07
1050.8	1.0e-07
1051.0	1.0e-07
1051.2	1.0e-07
1051.4	1.0e-07
1051.6	1.0e-07
1051.8	1.0e-07
1052.0	1.0e-07
1052.2	1.0e-07
1052.4	1.0e-07
1052.6	1.0e-07
1052.8	1.0e-07
1053.0	1.0e-07
1053.2	1.0e-07
1053.4	1.0e-07
1053.6	1.0e-07
1053.8	1.0e-07
1054.0	1.0e-07
1054.2	1.0e-07
1054.4	1.0e-07
1054.6	1.0e-07
1054.8	1.0e-07
1055.0	1.0e-07
1055.2	1.0e-07
1055.4	1.0e-07
1055.6	1.0e-07
1055.8	1.0e-07
1056.0	1.0e-07
1056.2	1.0e-07
1056.4	1.0e-07
1056.6	1.0e-07
1056.8	1.0e-07
1057.0	1.0e-07
1057.2	1.0e-07
1057.4	1.0e-07
1057.6	1.0e-07
1057.8	1.0e-07
1058.0	1.0e-07
1058.2	1.0e-07
1058.4	1.0e-07
1058.6	1.0e-07
1058.8	1.0e-07
1059.0	1.0e-07
1059.2	1.0e-07
1059.4	1.0e-07
1059.6	1.0e-07
1059.8	1.0e-07
1060.0	1.0e-07
1060.2	1.0e-07
1060.4	1.0e-07
1060.6	1.0e-07
1060.8	1.0e-07
1061.0	1.0e-07
1061.2	1.0e-07
1061.4	1.0e-07
1061.6	1.0e-07
1061.8	1.0e-07
1062.0	1.0e-07
1062.2	1.0e-07
1062.4	1.0e-07
1062.6	1.0e-07
1062.8	1.0e-07
1063.0	1.0e-07
1063.2	1.0e-07
1063.4	1.0e-07
1063.6	1.0e-07
1063.8	1.0e-07
1064.0	1.0e-07
1064.2	1.0e-07
1064.4	1.0e-07
1064.6	1.0e-07
1064.8	1.0e-07
1065.0	1.0e-07
1065.2	1.0e-07
1065.4	1.0e-07
1065.6	1.0e-07
1065.8	1.0e-07
1066.0	1.0e-07
1066.2	1.0e-07
1066.4	1.0e-07
1066.6	1.0e-07
1066.8	1.0e-07
1067.0	1.0e-07
1067.2	1.0e-07
1067.4	1.0e-07
1067.6	1.0e-07
1067.8	1.0e-07
1068.0	1.0e-07
1068.2	1.0e-07
1068.4	1.0e-07
1068.6	1.0e-07
1068.8	1.0e-07
1069.0	1.0e-07
1069.2	1.0e-07
1069.4	1.0e-07
1069.6	1.0e-07
1069.8	1.0041e-07
1070.0	1.0238e-07
1070.2	1.0439e-07
1070.4	1.0645e-07
1070.6	1.0854e-07
1070.8	1.1067e-07
1071.0	1.1285e-07
1071.2	1.1506e-07
1071.4	1.1732e-07
1071.6	1.1963e-07
1071.8	1.2198e-07
1072.0	1.2438e-07
1072.2	1.2682e-07
1072.4	1.2931e-07
1072.6	1.3185e-07
1072.8	1.3445e-07
1073.0	1.3709e-07
1073.2	1.3978e-07
1073.4	1.3753e-07
1073.6	1.2797e-07
1073.8	1.1908e-07
1074.0	1.108e-07
1074.2	1.031e-07
1074.4	9.5933e-08
1074.6	8.9266e-08
1074.8	8.3061e-08
1075.0	7.7288e-08
1075.2	7.1916e-08
1075.4	6.6917e-08
1075.6	6.2266e-08
1075.8	5.7938e-08
1076.0	5.3911e-08
1076.2	5.0164e-08
1076.4	4.6677e-08
1076.6	4.3433e-08
1076.8	4.0414e-08
1077.0	3.7607e-08
1077.2	3.4997e-08
1077.4	3.2568e-08
1077.6	3.0307e-08
1077.8	2.8203e-08
1078.0	2.6246e-08
1078.2	2.4424e-08
1078.4	2.2729e-08
1078.6	2.1151e-08
1078.8	1.9683e-08
1079.0	1.8317e-08
1079.2	1.7045e-08
1079.4	1.5862e-08
1079.6	1.4761e-08
1079.8	1.3736e-08
1080.0	1.2783e-08
1080.2	1.1896e-08
1080.4	1.107e-08
1080.6	1.0943e-08
1080.8	1.1009e-08
1081.0	1.1076e-08
1081.2	1.1142e-08
1081.4	1.121e-08
1081.6	1.1277e-08
1081.8	1.1345e-08
1082.0	1.1414e-08
1082.2	1.1483e-08
1082.4	1.1552e-08
1082.6	1.1622e-08
1082.8	1.1692e-08
1083.0	1.1762e-08
1083.2	1.1833e-08
1083.4	1.1905e-08
1083.6	1.1976e-08
1083.8	1.2049e-08
1084.0	1.2121e-08
1084.2	1.2201e-08
1084.4	1.228e-08
1084.6	1.2361e-08
1084.8	1.2441e-08
1085.0	1.2523e-08
1085.2	1.2605e-08
1085.4	1.2687e-08
1085.6	1.277e-08
1085.8	1.2854e-08
1086.0	1.2938e-08
1086.2	1.3022e-08
1086.4	1.3107e-08
1086.6	1.3193e-08
1086.8	1.3279e-08
1087.0	1.3366e-08
1087.2	1.3454e-08
1087.4	1.3541e-08
1087.6	1.3632e-08
1087.8	1.3729e-08
1088.0	1.3826e-08
1088.2	1.3925e-08
1088.4	1.4024e-08
1088.6	1.4124e-08
1088.8	1.4225e-08
1089.0	1.4326e-08
1089.2	1.4428e-08
1089.4	1.4531e-08
1089.6	1.4634e-08
1089.8	1.4738e-08
1090.0	1.4843e-08
1090.2	1.4956e-08
1090.4	1.507e-08
1090.6	1.5185e-08
1090.8	1.53e-08
1091.0	1.5416e-08
1091.2	1.5534e-08
1091.4	1.5647e-08
1091.6	1.5759e-08
1091.8	1.5872e-08
1092.0	1.5985e-08
1092.2	1.61e-08
1092.4	1.6215e-08
1092.6	1.6331e-08
1092.8	1.6448e-08
1093.0	1.6566e-08
1093.2	1.6685e-08
1093.4	1.6804e-08
1093.6	1.6925e-08
1093.8	1.7046e-08
1094.0	1.7168e-08
1094.2	1.7291e-08
1094.4	1.7415e-08
1094.6	1.7539e-08
1094.8	1.7665e-08
1095.0	1.7802e-08
1095.2	1.7941e-08
1095.4	1.808e-08
1095.6	1.8221e-08
1095.8	1.8363e-08
1096.0	1.8506e-08
1096.2	1.865e-08
1096.4	1.8796e-08
1096.6	1.8942e-08
1096.8	1.909e-08
1097.0	1.9238e-08
1097.2	1.9388e-08
1097.4	1.9539e-08
1097.6	1.9692e-08
1097.8	1.9845e-08
1098.0	2.0e-08
1098.2	2.0155e-08
1098.4	2.0312e-08
1098.6	2.0464e-08
1098.8	2.0618e-08
1099.0	2.0773e-08
1099.2	2.0929e-08
1099.4	2.1087e-08
1099.6	2.1245e-08
1099.8	2.1405e-08
1100.0	2.1566e-08
1100.2	2.1728e-08
1100.4	2.1891e-08
1100.6	2.2056e-08
1100.8	2.2222e-08
1101.0	2.2389e-08
1101.2	2.2557e-08
1101.4	2.2727e-08
1101.6	2.2897e-08
1101.8	2.307e-08
1102.0	2.3248e-08
1102.2	2.3435e-08
1102.4	2.3624e-08
1102.6	2.3814e-08
1102.8	2.4006e-08
1103.0	2.4199e-08
1103.2	2.4394e-08
1103.4	2.4591e-08
1103.6	2.4789e-08
1103.8	2.4989e-08
1104.0	2.519e-08
1104.2	2.5393e-08
1104.4	2.5598e-08
1104.6	2.5804e-08
1104.8	2.6012e-08
1105.0	2.6222e-08
1105.2	2.6433e-08
1105.4	2.6646e-08
1105.6	2.8838e-08
1105.8	3.2691e-08
1106.0	3.7059e-08
1106.2	4.201e-08
1106.4	4.7623e-08
1106.6	5.3986e-08
1106.8	6.1199e-08
1107.0	6.9376e-08
1107.2	7.8645e-08
1107.4	8.9153e-08
1107.6	1.0106e-07
1107.8	1.1457e-07
1108.0	1.2987e-07
1108.2	1.4723e-07
1108.4	1.669e-07
1108.6	1.892e-07
1108.8	2.1448e-07
1109.0	2.4313e-07
1109.2	2.5474e-07
1109.4	2.6307e-07
1109.6	2.7167e-07
1109.8	2.8056e-07
1110.0	2.8973e-07
1110.2	2.9921e-07
1110.4	3.09e-07
1110.6	3.191e-07
1110.8	3.2954e-07
1111.0	3.4032e-07
1111.2	3.5145e-07
1111.4	3.6294e-07
1111.6	3.7481e-07
1111.8	3.8707e-07
1112.0	3.9973e-07
1112.2	4.128e-07
1112.4	4.263e-07
1112.6	4.4086e-07
1112.8	4.6168e-07
1113.0	4.8349e-07
1113.2	5.0633e-07
1113.4	5.3025e-07
1113.6	5.553e-07
1113.8	5.8153e-07
1114.0	6.09e-07
1114.2	6.3777e-07
1114.4	6.679e-07
1114.6	6.9945e-07
1114.8	7.3249e-07
1115.0	7.6709e-07
1115.2	8.0333e-07
1115.4	8.4128e-07
1115.6	8.8102e-07
1115.8	9.2264e-07
1116.0	9.6622e-07
1116.2	9.3688e-07
1116.4	7.9222e-07
1116.6	6.699e-07
1116.8	5.6646e-07
1117.0	4.79e-07
1117.2	4.0504e-07
1117.4	3.425e-07
1117.6	2.8962e-07
1117.8	2.449e-07
1118.0	2.0708e-07
1118.2	1.7511e-07
1118.4	1.4807e-07
1118.6	1.2521e-07
1118.8	1.0588e-07
1119.0	8.9528e-08
1119.2	7.5704e-08
1119.4	6.4015e-08
1119.6	5.4131e-08
1119.8	2.8172e-07
1120.0	4.2629e-06
1120.2	4.265e-06
1120.4	4.2671e-06
1120.6	4.2693e-06
1120.8	4.2714e-06
1121.0	4.2735e-06
1121.2	4.2756e-06
1121.4	4.2778e-06
1121.6	4.2799e-06
1121.8	4.282e-06
1122.0	4.2842e-06
1122.2	4.2863e-06
1122.4	4.2885e-06
1122.6	4.2906e-06
1122.8	4.2927e-06
1123.0	4.2949e-06
1123.2	4.297e-06
1123.4	4.2992e-06
1123.6	4.3013e-06
1123.8	4.3034e-06
1124.0	4.3056e-06
1124.2	4.3077e-06
1124.4	4.3099e-06
1124.6	4.312e-06
1124.8	4.3142e-06
1125.0	4.3163e-06
1125.2	4.3148e-06
1125.4	4.3132e-06
1125.6	4.3117e-06
1125.8	4.3102e-06
1126.0	4.3086e-06
1126.2	4.3071e-06
1126.4	4.3055e-06
1126.6	4.304e-06
1126.8	4.3025e-06
1127.0	4.3009e-06
1127.2	4.2994e-06
1127.4	4.2978e-06
1127.6	4.2963e-06
1127.8	4.2948e-06
1128.0	4.2932e-06
1128.2	4.2917e-06
1128.4	4.2902e-06
1128.6	4.2886e-06
1128.8	4.2871e-06
1129.0	4.2856e-06
1129.2	4.284e-06
1129.4	4.2825e-06
1129.6	4.281e-06
1129.8	4.2794e-06
1130.0	4.2779e-06
1130.2	4.283e-06
1130.4	4.2881e-06
1130.6	4.2933e-06
1130.8	4.2984e-06
1131.0	4.3035e-06
1131.2	4.3087e-06
1131.4	4.3138e-06
1131.6	4.319e-06
1131.8	4.3242e-06
1132.0	4.3293e-06
1132.2	4.3345e-06
1132.4	4.3397e-06
1132.6	4.3449e-06
1132.8	4.3501e-06
1133.0	4.3553e-06
1133.2	4.3605e-06
1133.4	4.3657e-06
1133.6	4.371e-06
1133.8	4.3762e-06
1134.0	4.3814e-06
1134.2	4.3867e-06
1134.4	4.3919e-06
1134.6	4.3972e-06
1134.8	4.4024e-06
1135.0	4.4077e-06
1135.2	4.4138e-06
1135.4	4.4198e-06
1135.6	4.4259e-06
1135.8	4.432e-06
1136.0	4.4382e-06
1136.2	4.4443e-06
1136.4	4.4504e-06
1136.6	4.4565e-06
1136.8	4.4627e-06
1137.0	4.4688e-06
1137.2	4.475e-06
1137.4	4.4812e-06
1137.6	4.4873e-06
1137.8	4.4935e-06
1138.0	4.4997e-06
1138.2	4.5059e-06
1138.4	4.5121e-06
1138.6	4.5183e-06
1138.8	4.5246e-06
1139.0	4.5308e-06
1139.2	4.5371e-06
1139.4	4.5433e-06
1139.6	4.5496e-06
1139.8	4.5558e-06
1140.0	4.5621e-06
1140.2	4.5954e-06
1140.4	4.629e-06
1140.6	4.6628e-06
1140.8	4.6968e-06
1141.0	4.7311e-06
1141.2	4.7657e-06
1141.4	4.8005e-06
1141.6	4.8355e-06
1141.8	4.8709e-06
1142.0	4.9064e-06
1142.2	4.9422e-06
1142.4	4.9783e-06
1142.6	5.0147e-06
1142.8	5.0513e-06
1143.0	5.0882e-06
1143.2	5.1254e-06
1143.4	5.1628e-06
1143.6	5.2005e-06
1143.8	5.2385e-06
1144.0	5.2767e-06
1144.2	5.3152e-06
1144.4	5.3541e-06
1144.6	5.3932e-06
1144.8	5.4325e-06
1145.0	5.4722e-06
1145.2	5.4323e-06
1145.4	5.3926e-06
1145.6	5.3533e-06
1145.8	5.3142e-06
1146.0	5.2754e-06
1146.2	5.2369e-06
1146.4	5.1987e-06
1146.6	5.1608e-06
1146.8	5.1231e-06
1147.0	5.0857e-06
1147.2	5.0486e-06
1147.4	5.0118e-06
1147.6	4.9752e-06
1147.8	4.9389e-06
1148.0	4.9029e-06
1148.2	4.8671e-06
1148.4	4.8316e-06
1148.6	4.7963e-06
1148.8	4.7613e-06
1149.0	4.7266e-06
1149.2	4.6921e-06
1149.4	4.6579e-06
1149.6	4.6239e-06
1149.8	4.5901e-06
1150.0	4.5566e-06
1150.2	4.5474e-06
1150.4	4.5382e-06
1150.6	4.529e-06
1150.8	4.5198e-06
1151.0	4.5106e-06
1151.2	4.5014e-06
1151.4	4.4923e-06
1151.6	4.4832e-06
1151.8	4.4741e-06
1152.0	4.465e-06
1152.2	4.456e-06
1152.4	4.4469e-06
1152.6	4.4379e-06
1152.8	4.4289e-06
1153.0	4.4199e-06
1153.2	4.411e-06
1153.4	4.402e-06
1153.6	4.3931e-06
1153.8	4.3842e-06
1154.0	4.3753e-06
1154.2	4.3664e-06
1154.4	4.3575e-06
1154.6	4.3487e-06
1154.8	4.3399e-06
1155.0	4.3311e-06
1155.2	4.3212e-06
1155.4	4.3113e-06
1155.6	4.3015e-06
1155.8	4.2917e-06
1156.0	4.2819e-06
1156.2	4.2721e-06
1156.4	4.2624e-06
1156.6	4.2526e-06
1156.8	4.2429e-06
1157.0	4.2332e-06
1157.2	4.2236e-06
1157.4	4.2139e-06
1157.6	4.2043e-06
1157.8	4.1947e-06
1158.0	4.1852e-06
1158.2	4.1756e-06
1158.4	4.1661e-06
1158.6	4.1566e-06
1158.8	4.1471e-06
1159.0	4.1376e-06
1159.2	4.1282e-06
1159.4	4.1188e-06
1159.6	4.1094e-06
1159.8	4.1e-06
1160.0	4.0906e-06
1160.2	4.0847e-06
1160.4	4.0787e-06
1160.6	4.0728e-06
1160.8	4.0668e-06
1161.0	4.0609e-06
1161.2	4.055e-06
1161.4	4.0491e-06
1161.6	4.0432e-06
1161.8	4.0373e-06
1162.0	4.0314e-06
1162.2	4.0255e-06
1162.4	4.0197e-06
1162.6	4.0138e-06
1162.8	4.008e-06
1163.0	4.0021e-06
1163.2	3.9963e-06
1163.4	3.9905e-06
1163.6	3.9846e-06
1163.8	3.9788e-06
1164.0	3.973e-06
1164.2	3.9672e-06
1164.4	3.9615e-06
1164.6	3.9557e-06
1164.8	3.9499e-06
1165.0	3.9442e-06
1165.2	3.9397e-06
1165.4	3.9352e-06
1165.6	3.9307e-06
1165.8	3.9263e-06
1166.0	3.9218e-06
1166.2	3.9173e-06
1166.4	3.9129e-06
1166.6	3.9084e-06
1166.8	3.904e-06
1167.0	3.8995e-06
1167.2	3.8951e-06
1167.4	3.8907e-06
1167.6	3.8863e-06
1167.8	3.8818e-06
1168.0	3.8774e-06
1168.2	3.873e-06
1168.4	3.8686e-06
1168.6	3.8642e-06
1168.8	3.8598e-06
1169.0	3.8554e-06
1169.2	3.851e-06
1169.4	3.8467e-06
1169.6	3.8423e-06
1169.8	3.8379e-06
1170.0	3.8336e-06
1170.2	3.8323e-06
1170.4	3.8311e-06
1170.6	3.8298e-06
1170.8	3.8286e-06
1171.0	3.8273e-06
1171.2	3.8261e-06
1171.4	3.8249e-06
1171.6	3.8236e-06
1171.8	3.8224e-06
1172.0	3.8211e-06
1172.2	3.8199e-06
1172.4	3.8187e-06
1172.6	3.8174e-06
1172.8	3.8162e-06
1173.0	3.8149e-06
1173.2	3.8137e-06
1173.4	3.8125e-06
1173.6	3.8112e-06
1173.8	3.81e-06
1174.0	3.8088e-06
1174.2	3.8075e-06
1174.4	3.8063e-06
1174.6	3.8051e-06
1174.8	3.8038e-06
1175.0	3.8026e-06
1175.2	3.8013e-06
1175.4	3.7999e-06
1175.6	3.7986e-06
1175.8	3.7973e-06
1176.0	3.796e-06
1176.2	3.7947e-06
1176.4	3.7933e-06
1176.6	3.792e-06
1176.8	3.7907e-06
1177.0	3.7894e-06
1177.2	3.7881e-06
1177.4	3.7867e-06
1177.6	3.7854e-06
1177.8	3.7841e-06
1178.0	3.7828e-06
1178.2	3.7815e-06
1178.4	3.7801e-06
1178.6	3.7788e-06
1178.8	3.7775e-06
1179.0	3.7762e-06
1179.2	3.7749e-06
1179.4	3.7736e-06
1179.6	3.7722e-06
1179.8	3.7709e-06
1180.0	3.7696e-06
1180.2	3.7694e-06
1180.4	3.7692e-06
1180.6	3.769e-06
1180.8	3.7688e-06
1181.0	3.7686e-06
1181.2	3.7684e-06
1181.4	3.7682e-06
1181.6	3.768e-06
1181.8	3.7678e-06
1182.0	3.7675e-06
1182.2	3.7673e-06
1182.4	3.7671e-06
1182.6	3.7669e-06
1182.8	3.7667e-06
1183.0	3.7665e-06
1183.2	3.7663e-06
1183.4	3.7661e-06
1183.6	3.7659e-06
1183.8	3.7657e-06
1184.0	3.7655e-06
1184.2	3.7653e-06
1184.4	3.7651e-06
1184.6	3.7649e-06
1184.8	3.7646e-06
1185.0	3.7644e-06
1185.2	3.7646e-06
1185.4	3.7647e-06
1185.6	3.7648e-06
1185.8	3.765e-06
1186.0	3.7651e-06
1186.2	3.7652e-06
1186.4	3.7654e-06
1186.6	3.7655e-06
1186.8	3.7656e-06
1187.0	3.7657e-06
1187.2	3.7659e-06
1187.4	3.766e-06
1187.6	3.7661e-06
1187.8	3.7663e-06
1188.0	3.7664e-06
1188.2	3.7665e-06
1188.4	3.7667e-06
1188.6	3.7668e-06
1188.8	3.7669e-06
1189.0	3.767e-06
1189.2	3.7672e-06
1189.4	3.7673e-06
1189.6	3.7674e-06
1189.8	3.7676e-06
1190.0	3.7677e-06
1190.2	3.7681e-06
1190.4	3.7685e-06
1190.6	3.7689e-06
1190.8	3.7693e-06
1191.0	3.7698e-06
1191.2	3.7702e-06
1191.4	3.7706e-06
1191.6	3.771e-06
1191.8	3.7714e-06
1192.0	3.7718e-06
1192.2	3.7722e-06
1192.4	3.7727e-06
1192.6	3.7731e-06
1192.8	3.7735e-06
1193.0	3.7739e-06
1193.2	3.7743e-06
1193.4	3.7747e-06
1193.6	3.7751e-06
1193.8	3.7756e-06
1194.0	3.776e-06
1194.2	3.7764e-06
1194.4	3.7768e-06
1194.6	3.7772e-06
1194.8	3.7776e-06
1195.0	3.778e-06
1195.2	3.7799e-06
1195.4	3.7818e-06
1195.6	3.7837e-06
1195.8	3.7856e-06
1196.0	3.7874e-06
1196.2	3.7893e-06
1196.4	3.7912e-06
1196.6	3.7931e-06
1196.8	3.795e-06
1197.0	3.7969e-06
1197.2	3.7988e-06
1197.4	3.8006e-06
1197.6	3.8025e-06
1197.8	3.8044e-06
1198.0	3.8063e-06
1198.2	3.8082e-06
1198.4	3.8101e-06
1198.6	3.812e-06
1198.8	3.8139e-06
1199.0	3.8158e-06
1199.2	3.8177e-06
1199.4	3.8196e-06
1199.6	3.8215e-06
1199.8	3.8234e-06
1200.0	3.8253e-06
1200.2	3.8288e-06
1200.4	3.8323e-06
1200.6	3.8359e-06
1200.8	3.8394e-06
1201.0	3.8429e-06
1201.2	3.8465e-06
1201.4	3.85e-06
1201.6	3.8535e-06
1201.8	3.8571e-06
1202.0	3.8606e-06
1202.2	3.8642e-06
1202.4	3.8678e-06
1202.6	3.8713e-06
1202.8	3.8749e-06
1203.0	3.8784e-06
1203.2	3.882e-06
1203.4	3.8856e-06
1203.6	3.8892e-06
1203.8	3.8927e-06
1204.0	3.8963e-06
1204.2	3.8999e-06
1204.4	3.9035e-06
1204.6	3.9071e-06
1204.8	3.9107e-06
1205.0	3.9143e-06
1205.2	3.9134e-06
1205.4	3.9125e-06
1205.6	3.9116e-06
1205.8	3.9107e-06
1206.0	3.9097e-06
1206.2	3.9088e-06
1206.4	3.9079e-06
1206.6	3.907e-06
1206.8	3.9061e-06
1207.0	3.9052e-06
1207.2	3.9043e-06
1207.4	3.9034e-06
1207.6	3.9025e-06
1207.8	3.9016e-06
1208.0	3.9006e-06
1208.2	3.8997e-06
1208.4	3.8988e-06
1208.6	3.8979e-06
1208.8	3.897e-06
1209.0	3.8961e-06
1209.2	3.8952e-06
1209.4	3.8943e-06
1209.6	3.8934e-06
1209.8	3.8925e-06
1210.0	3.8916e-06
